[gd_scene load_steps=3 format=2]

[ext_resource path="res://scenes/DustCloud.gd" type="Script" id=1]

[sub_resource type="ParticlesMaterial" id=1]
trail_divisor = 4
emission_shape = 1
emission_sphere_radius = 5.0
flag_disable_z = true
gravity = Vector3( 0, -2, 0 )
initial_velocity = 10.0
initial_velocity_random = 1.0
angular_velocity = 10.0
angular_velocity_random = 0.25
orbit_velocity = 0.0
orbit_velocity_random = 0.0
linear_accel = 2.0
linear_accel_random = 0.5
damping = 2.0
damping_random = 0.5
scale = 4.0
scale_random = 0.25
color = Color( 1, 1, 0.909804, 1 )
hue_variation = 0.1
hue_variation_random = 0.1
anim_speed = 10.0

[node name="DustCloud" type="Node2D"]
script = ExtResource( 1 )

[node name="Particles2D" type="Particles2D" parent="."]
amount = 30
lifetime = 1.1
speed_scale = 5.0
explosiveness = 0.1
randomness = 1.0
process_material = SubResource( 1 )
