[gd_scene load_steps=3 format=2]

[ext_resource path="res://assets/tilesets/TileSet.tres" type="TileSet" id=1]
[ext_resource path="res://scenes/Player.tscn" type="PackedScene" id=2]

[node name="Map1" type="Node2D"]

[node name="TileMap" type="TileMap" parent="."]
tile_set = ExtResource( 1 )
format = 1
tile_data = PoolIntArray( -131075, 6, 0, -131074, 6, 0, -131073, 6, 0, -196608, 6, 0, -196607, 6, 0, -196606, 6, 0, -196605, 6, 0, -196604, 6, 0, -196603, 6, 0, -196602, 6, 0, -196601, 6, 0, -196600, 6, 0, -196599, 6, 0, -196598, 6, 0, -196597, 6, 0, -196596, 6, 0, -196595, 6, 0, -196594, 6, 0, -196593, 6, 0, -196592, 6, 0, -196591, 6, 0, -196590, 6, 0, -196589, 6, 0, -196588, 6, 0, -196587, 6, 0, -196586, 6, 0, -196585, 6, 0, -196584, 6, 0, -196583, 6, 0, -196582, 6, 0, -196581, 6, 0, -196580, 6, 0, -196579, 6, 0, -196578, 6, 0, -196577, 6, 0, -196576, 6, 0, -196575, 6, 0, -196574, 6, 0, -196573, 6, 0, -196572, 6, 0, -196571, 6, 0, -196570, 6, 0, -196569, 6, 0, -196568, 6, 0, -196567, 6, 0, -196566, 6, 0, -196565, 6, 0, -196564, 6, 0, -196563, 6, 0, -196562, 6, 0, -196561, 6, 0, -196560, 6, 0, -196559, 6, 0, -196558, 6, 0, -196557, 6, 0, -196556, 6, 0, -196555, 6, 0, -196554, 6, 0, -196553, 6, 0, -196552, 16, 0, -196551, 6, 0, -196550, 6, 0, -196549, 6, 0, -196548, 6, 0, -196547, 6, 0, -196546, 6, 0, -196545, 6, 0, -196544, 6, 0, -196543, 6, 0, -196542, 6, 0, -196541, 6, 0, -196540, 6, 0, -196539, 6, 0, -196538, 6, 0, -196537, 6, 0, -196536, 6, 0, -196535, 16, 0, -196534, 6, 0, -196533, 6, 0, -196532, 6, 0, -196531, 6, 0, -196530, 6, 0, -196529, 6, 0, -196528, 6, 0, -196527, 6, 0, -196526, 6, 0, -196525, 6, 0, -196524, 6, 0, -196523, 6, 0, -196522, 6, 0, -196521, 6, 0, -196520, 6, 0, -196519, 6, 0, -196518, 6, 0, -196517, 6, 0, -196516, 6, 0, -196515, 6, 0, -196514, 6, 0, -196513, 16, 0, -196512, 6, 0, -65539, 6, 0, -65538, 16, 0, -65537, 6, 0, -131072, 6, 0, -131071, 6, 0, -131070, 6, 0, -131069, 6, 0, -131068, 6, 0, -131067, 6, 0, -131066, 6, 0, -131065, 6, 0, -131064, 6, 0, -131063, 6, 0, -131062, 6, 0, -131061, 6, 0, -131060, 16, 0, -131059, 6, 0, -131058, 6, 0, -131057, 6, 0, -131056, 6, 0, -131055, 6, 0, -131054, 6, 0, -131053, 6, 0, -131052, 6, 0, -131051, 6, 0, -131050, 16, 0, -131049, 6, 0, -131048, 6, 0, -131047, 6, 0, -131046, 16, 0, -131045, 6, 0, -131044, 6, 0, -131043, 6, 0, -131042, 6, 0, -131041, 6, 0, -131040, 6, 0, -131039, 11, 0, -131038, 6, 0, -131037, 6, 0, -131036, 6, 0, -131035, 6, 0, -131034, 6, 0, -131033, 6, 0, -131032, 6, 0, -131031, 6, 0, -131030, 6, 0, -131029, 6, 0, -131028, 6, 0, -131027, 6, 0, -131026, 6, 0, -131025, 6, 0, -131024, 6, 0, -131023, 11, 0, -131022, 6, 0, -131021, 6, 0, -131020, 6, 0, -131019, 6, 0, -131018, 6, 0, -131017, 6, 0, -131016, 6, 0, -131015, 6, 0, -131014, 6, 0, -131013, 6, 0, -131012, 6, 0, -131011, 6, 0, -131010, 6, 0, -131009, 6, 0, -131008, 6, 0, -131007, 6, 0, -131006, 6, 0, -131005, 6, 0, -131004, 6, 0, -131003, 6, 0, -131002, 6, 0, -131001, 6, 0, -131000, 6, 0, -130999, 6, 0, -130998, 6, 0, -130997, 6, 0, -130996, 6, 0, -130995, 6, 0, -130994, 6, 0, -130993, 6, 0, -130992, 6, 0, -130991, 6, 0, -130990, 6, 0, -130989, 6, 0, -130988, 6, 0, -130987, 6, 0, -130986, 16, 0, -130985, 6, 0, -130984, 6, 0, -130983, 6, 0, -130982, 6, 0, -130981, 6, 0, -130980, 6, 0, -130979, 6, 0, -130978, 6, 0, -130977, 6, 0, -130976, 6, 0, -3, 6, 0, -2, 6, 0, -1, 6, 0, -65536, 6, 0, -65535, 6, 0, -65534, 16, 0, -65533, 6, 0, -65532, 6, 0, -65531, 11, 0, -65530, 6, 0, -65529, 6, 0, -65528, 6, 0, -65527, 16, 0, -65526, 6, 0, -65525, 6, 0, -65524, 6, 0, -65523, 6, 0, -65522, 6, 0, -65521, 6, 0, -65520, 6, 0, -65519, 16, 0, -65518, 6, 0, -65517, 6, 0, -65516, 6, 0, -65515, 6, 0, -65514, 6, 0, -65513, 6, 0, -65512, 6, 0, -65511, 6, 0, -65510, 6, 0, -65509, 6, 0, -65508, 6, 0, -65507, 6, 0, -65506, 6, 0, -65505, 6, 0, -65504, 6, 0, -65503, 6, 0, -65502, 6, 0, -65501, 6, 0, -65500, 6, 0, -65499, 6, 0, -65498, 6, 0, -65497, 6, 0, -65496, 6, 0, -65495, 11, 0, -65494, 6, 0, -65493, 6, 0, -65492, 6, 0, -65491, 6, 0, -65490, 6, 0, -65489, 6, 0, -65488, 6, 0, -65487, 6, 0, -65486, 6, 0, -65485, 6, 0, -65484, 6, 0, -65483, 6, 0, -65482, 6, 0, -65481, 6, 0, -65480, 6, 0, -65479, 6, 0, -65478, 6, 0, -65477, 6, 0, -65476, 6, 0, -65475, 6, 0, -65474, 6, 0, -65473, 6, 0, -65472, 6, 0, -65471, 6, 0, -65470, 16, 0, -65469, 6, 0, -65468, 6, 0, -65467, 6, 0, -65466, 6, 0, -65465, 6, 0, -65464, 6, 0, -65463, 6, 0, -65462, 6, 0, -65461, 6, 0, -65460, 6, 0, -65459, 6, 0, -65458, 6, 0, -65457, 6, 0, -65456, 6, 0, -65455, 6, 0, -65454, 6, 0, -65453, 6, 0, -65452, 6, 0, -65451, 6, 0, -65450, 6, 0, -65449, 6, 0, -65448, 6, 0, -65447, 6, 0, -65446, 6, 0, -65445, 6, 0, -65444, 6, 0, -65443, 6, 0, -65442, 6, 0, -65441, 6, 0, -65440, 6, 0, 65533, 6, 0, 65534, 6, 0, 65535, 6, 0, 0, 6, 0, 1, 0, 0, 2, 2, 0, 3, 3, 0, 4, 2, 0, 5, 3, 0, 6, 3, 0, 7, 4, 0, 8, 6, 0, 9, 1, 0, 10, 2, 0, 11, 3, 0, 12, 2, 0, 13, 3, 0, 14, 4, 0, 15, 6, 0, 16, 6, 0, 17, 6, 0, 18, 6, 0, 19, 6, 0, 20, 6, 0, 21, 6, 0, 22, 6, 0, 23, 6, 0, 24, 6, 0, 25, 6, 0, 26, 6, 0, 27, 6, 0, 28, 6, 0, 29, 6, 0, 30, 11, 0, 31, 6, 0, 32, 6, 0, 33, 6, 0, 34, 0, 0, 35, 2, 0, 36, 3, 0, 37, 2, 0, 38, 2, 0, 39, 3, 0, 40, 3, 0, 41, 2, 0, 42, 3, 0, 43, 2, 0, 44, 2, 0, 45, 2, 0, 46, 2, 0, 47, 2, 0, 48, 2, 0, 49, 3, 0, 50, 2, 0, 51, 2, 0, 52, 3, 0, 53, 2, 0, 54, 4, 0, 55, 6, 0, 56, 6, 0, 57, 6, 0, 58, 11, 0, 59, 6, 0, 60, 6, 0, 61, 6, 0, 62, 6, 0, 63, 6, 0, 64, 0, 0, 65, 2, 0, 66, 2, 0, 67, 2, 0, 68, 2, 0, 69, 2, 0, 70, 3, 0, 71, 2, 0, 72, 2, 0, 73, 4, 0, 74, 6, 0, 75, 6, 0, 76, 6, 0, 77, 6, 0, 78, 1, 0, 79, 2, 0, 80, 2, 0, 81, 3, 0, 82, 2, 0, 83, 2, 0, 84, 2, 0, 85, 2, 0, 86, 3, 0, 87, 2, 0, 88, 4, 0, 89, 6, 0, 90, 6, 0, 91, 6, 0, 92, 6, 0, 93, 6, 0, 94, 6, 0, 95, 6, 0, 96, 6, 0, 131069, 6, 0, 131070, 6, 0, 131071, 16, 0, 65536, 0, 0, 65537, 14, 0, 65538, 21, 0, 65539, 21, 0, 65540, 21, 0, 65541, 21, 0, 65542, 21, 0, 65543, 13, 0, 65544, 3, 0, 65545, 14, 0, 65546, 21, 0, 65547, 21, 0, 65548, 21, 0, 65549, 21, 0, 65550, 13, 0, 65551, 4, 0, 65552, 16, 0, 65553, 6, 0, 65554, 6, 0, 65555, 6, 0, 65556, 6, 0, 65557, 6, 0, 65558, 6, 0, 65559, 6, 0, 65560, 16, 0, 65561, 6, 0, 65562, 6, 0, 65563, 6, 0, 65564, 6, 0, 65565, 6, 0, 65566, 6, 0, 65567, 6, 0, 65568, 6, 0, 65569, 6, 0, 65570, 12, 0, 65571, 21, 0, 65572, 21, 0, 65573, 21, 0, 65574, 21, 0, 65575, 21, 0, 65576, 21, 0, 65577, 21, 0, 65578, 21, 0, 65579, 21, 0, 65580, 21, 0, 65581, 21, 0, 65582, 21, 0, 65583, 21, 0, 65584, 21, 0, 65585, 21, 0, 65586, 21, 0, 65587, 21, 0, 65588, 21, 0, 65589, 21, 0, 65590, 15, 0, 65591, 6, 0, 65592, 6, 0, 65593, 6, 0, 65594, 6, 0, 65595, 6, 0, 65596, 6, 0, 65597, 6, 0, 65598, 6, 0, 65599, 6, 0, 65600, 12, 0, 65601, 21, 0, 65602, 21, 0, 65603, 21, 0, 65604, 21, 0, 65605, 21, 0, 65606, 21, 0, 65607, 21, 0, 65608, 21, 0, 65609, 13, 0, 65610, 4, 0, 65611, 6, 0, 65612, 6, 0, 65613, 6, 0, 65614, 12, 0, 65615, 21, 0, 65616, 21, 0, 65617, 21, 0, 65618, 21, 0, 65619, 21, 0, 65620, 21, 0, 65621, 21, 0, 65622, 21, 0, 65623, 21, 0, 65624, 13, 0, 65625, 4, 0, 65626, 6, 0, 65627, 11, 0, 65628, 6, 0, 65629, 6, 0, 65630, 6, 0, 65631, 6, 0, 65632, 6, 0, 196605, 6, 0, 196606, 6, 0, 196607, 6, 0, 131072, 12, 0, 131073, 21, 0, 131074, 21, 0, 131075, 21, 0, 131076, 8, 0, 131077, 9, 0, 131078, 21, 0, 131079, 21, 0, 131080, 21, 0, 131081, 21, 0, 131082, 21, 0, 131083, 21, 0, 131084, 21, 0, 131085, 21, 0, 131086, 21, 0, 131087, 15, 0, 131088, 6, 0, 131089, 6, 0, 131090, 6, 0, 131091, 6, 0, 131092, 6, 0, 131093, 6, 0, 131094, 6, 0, 131095, 6, 0, 131096, 6, 0, 131097, 6, 0, 131098, 6, 0, 131099, 6, 0, 131100, 6, 0, 131101, 16, 0, 131102, 6, 0, 131103, 6, 0, 131104, 1, 0, 131105, 3, 0, 131106, 14, 0, 131107, 21, 0, 131108, 21, 0, 131109, 21, 0, 131110, 21, 0, 131111, 21, 0, 131112, 21, 0, 131113, 21, 0, 131114, 21, 0, 131115, 21, 0, 131116, 21, 0, 131117, 21, 0, 131118, 21, 0, 131119, 21, 0, 131120, 21, 0, 131121, 21, 0, 131122, 21, 0, 131123, 21, 0, 131124, 21, 0, 131125, 21, 0, 131126, 13, 0, 131127, 4, 0, 131128, 6, 0, 131129, 6, 0, 131130, 6, 0, 131131, 6, 0, 131132, 6, 0, 131133, 6, 0, 131134, 0, 0, 131135, 2, 0, 131136, 14, 0, 131137, 21, 0, 131138, 21, 0, 131139, 21, 0, 131140, 21, 0, 131141, 21, 0, 131142, 21, 0, 131143, 21, 0, 131144, 21, 0, 131145, 21, 0, 131146, 13, 0, 131147, 4, 0, 131148, 6, 0, 131149, 1, 0, 131150, 14, 0, 131151, 21, 0, 131152, 21, 0, 131153, 21, 0, 131154, 21, 0, 131155, 21, 0, 131156, 21, 0, 131157, 21, 0, 131158, 21, 0, 131159, 21, 0, 131160, 21, 0, 131161, 15, 0, 131162, 6, 0, 131163, 6, 0, 131164, 6, 0, 131165, 6, 0, 131166, 6, 0, 131167, 6, 0, 131168, 6, 0, 262141, 6, 0, 262142, 6, 0, 262143, 16, 0, 196608, 12, 0, 196609, 21, 0, 196610, 21, 0, 196611, 21, 0, 196612, 13, 0, 196613, 14, 0, 196614, 21, 0, 196615, 21, 0, 196616, 21, 0, 196617, 21, 0, 196618, 21, 0, 196619, 8, 0, 196620, 9, 0, 196621, 21, 0, 196622, 21, 0, 196623, 13, 0, 196624, 3, 0, 196625, 2, 0, 196626, 2, 0, 196627, 3, 0, 196628, 2, 0, 196629, 2, 0, 196630, 2, 0, 196631, 2, 0, 196632, 3, 0, 196633, 2, 0, 196634, 2, 0, 196635, 3, 0, 196636, 2, 0, 196637, 2, 0, 196638, 2, 0, 196639, 2, 0, 196640, 14, 0, 196641, 21, 0, 196642, 21, 0, 196643, 21, 0, 196644, 8, 0, 196645, 18, 0, 196646, 18, 0, 196647, 18, 0, 196648, 18, 0, 196649, 9, 0, 196650, 21, 0, 196651, 21, 0, 196652, 21, 0, 196653, 21, 0, 196654, 8, 0, 196655, 18, 0, 196656, 18, 0, 196657, 9, 0, 196658, 21, 0, 196659, 21, 0, 196660, 21, 0, 196661, 21, 0, 196662, 21, 0, 196663, 13, 0, 196664, 2, 0, 196665, 2, 0, 196666, 4, 0, 196667, 6, 0, 196668, 11, 0, 196669, 6, 0, 196670, 12, 0, 196671, 21, 0, 196672, 21, 0, 196673, 21, 0, 196674, 21, 0, 196675, 21, 0, 196676, 21, 0, 196677, 21, 0, 196678, 21, 0, 196679, 21, 0, 196680, 21, 0, 196681, 21, 0, 196682, 21, 0, 196683, 13, 0, 196684, 3, 0, 196685, 14, 0, 196686, 21, 0, 196687, 21, 0, 196688, 21, 0, 196689, 8, 0, 196690, 19, 0, 196691, 9, 0, 196692, 21, 0, 196693, 21, 0, 196694, 21, 0, 196695, 21, 0, 196696, 21, 0, 196697, 15, 0, 196698, 6, 0, 196699, 6, 0, 196700, 6, 0, 196701, 6, 0, 196702, 16, 0, 196703, 6, 0, 196704, 6, 0, 327677, 6, 0, 327678, 6, 0, 327679, 6, 0, 262144, 12, 0, 262145, 21, 0, 262146, 21, 0, 262147, 21, 0, 262148, 21, 0, 262149, 21, 0, 262150, 21, 0, 262151, 21, 0, 262152, 21, 0, 262153, 21, 0, 262154, 21, 0, 262155, 13, 0, 262156, 14, 0, 262157, 21, 0, 262158, 21, 0, 262159, 21, 0, 262160, 21, 0, 262161, 21, 0, 262162, 21, 0, 262163, 21, 0, 262164, 21, 0, 262165, 21, 0, 262166, 21, 0, 262167, 21, 0, 262168, 21, 0, 262169, 21, 0, 262170, 21, 0, 262171, 21, 0, 262172, 21, 0, 262173, 21, 0, 262174, 21, 0, 262175, 21, 0, 262176, 21, 0, 262177, 21, 0, 262178, 21, 0, 262179, 21, 0, 262180, 15, 0, 262181, 6, 0, 262182, 6, 0, 262183, 6, 0, 262184, 6, 0, 262185, 12, 0, 262186, 21, 0, 262187, 21, 0, 262188, 21, 0, 262189, 21, 0, 262190, 15, 0, 262191, 6, 0, 262192, 11, 0, 262193, 7, 0, 262194, 21, 0, 262195, 21, 0, 262196, 21, 0, 262197, 21, 0, 262198, 21, 0, 262199, 21, 0, 262200, 21, 0, 262201, 21, 0, 262202, 13, 0, 262203, 4, 0, 262204, 6, 0, 262205, 6, 0, 262206, 12, 0, 262207, 21, 0, 262208, 21, 0, 262209, 21, 0, 262210, 21, 0, 262211, 8, 0, 262212, 18, 0, 262213, 19, 0, 262214, 18, 0, 262215, 9, 0, 262216, 21, 0, 262217, 21, 0, 262218, 21, 0, 262219, 21, 0, 262220, 21, 0, 262221, 21, 0, 262222, 21, 0, 262223, 21, 0, 262224, 21, 0, 262225, 15, 0, 262226, 6, 0, 262227, 17, 0, 262228, 9, 0, 262229, 21, 0, 262230, 21, 0, 262231, 21, 0, 262232, 21, 0, 262233, 13, 0, 262234, 4, 0, 262235, 6, 0, 262236, 6, 0, 262237, 6, 0, 262238, 6, 0, 262239, 6, 0, 262240, 6, 0, 393213, 6, 0, 393214, 11, 0, 393215, 6, 0, 327680, 17, 0, 327681, 19, 0, 327682, 9, 0, 327683, 21, 0, 327684, 21, 0, 327685, 21, 0, 327686, 21, 0, 327687, 21, 0, 327688, 21, 0, 327689, 21, 0, 327690, 21, 0, 327691, 21, 0, 327692, 21, 0, 327693, 21, 0, 327694, 21, 0, 327695, 21, 0, 327696, 21, 0, 327697, 21, 0, 327698, 21, 0, 327699, 21, 0, 327700, 21, 0, 327701, 21, 0, 327702, 21, 0, 327703, 21, 0, 327704, 21, 0, 327705, 21, 0, 327706, 21, 0, 327707, 21, 0, 327708, 21, 0, 327709, 21, 0, 327710, 21, 0, 327711, 21, 0, 327712, 21, 0, 327713, 21, 0, 327714, 21, 0, 327715, 21, 0, 327716, 15, 0, 327717, 6, 0, 327718, 6, 0, 327719, 6, 0, 327720, 6, 0, 327721, 12, 0, 327722, 21, 0, 327723, 21, 0, 327724, 21, 0, 327725, 21, 0, 327726, 15, 0, 327727, 6, 0, 327728, 6, 0, 327729, 7, 0, 327730, 21, 0, 327731, 21, 0, 327732, 21, 0, 327733, 21, 0, 327734, 21, 0, 327735, 21, 0, 327736, 21, 0, 327737, 21, 0, 327738, 21, 0, 327739, 13, 0, 327740, 2, 0, 327741, 2, 0, 327742, 14, 0, 327743, 21, 0, 327744, 21, 0, 327745, 21, 0, 327746, 21, 0, 327747, 15, 0, 327748, 6, 0, 327749, 6, 0, 327750, 6, 0, 327751, 12, 0, 327752, 21, 0, 327753, 21, 0, 327754, 21, 0, 327755, 21, 0, 327756, 21, 0, 327757, 8, 0, 327758, 19, 0, 327759, 19, 0, 327760, 19, 0, 327761, 20, 0, 327762, 6, 0, 327763, 6, 0, 327764, 17, 0, 327765, 9, 0, 327766, 21, 0, 327767, 21, 0, 327768, 21, 0, 327769, 21, 0, 327770, 13, 0, 327771, 4, 0, 327772, 6, 0, 327773, 6, 0, 327774, 6, 0, 327775, 6, 0, 327776, 6, 0, 458749, 6, 0, 458750, 6, 0, 458751, 6, 0, 393216, 6, 0, 393217, 6, 0, 393218, 12, 0, 393219, 21, 0, 393220, 21, 0, 393221, 21, 0, 393222, 21, 0, 393223, 21, 0, 393224, 21, 0, 393225, 21, 0, 393226, 21, 0, 393227, 21, 0, 393228, 21, 0, 393229, 21, 0, 393230, 21, 0, 393231, 8, 0, 393232, 18, 0, 393233, 19, 0, 393234, 19, 0, 393235, 19, 0, 393236, 19, 0, 393237, 9, 0, 393238, 21, 0, 393239, 21, 0, 393240, 21, 0, 393241, 21, 0, 393242, 8, 0, 393243, 19, 0, 393244, 19, 0, 393245, 9, 0, 393246, 21, 0, 393247, 21, 0, 393248, 21, 0, 393249, 21, 0, 393250, 21, 0, 393251, 21, 0, 393252, 15, 0, 393253, 6, 0, 393254, 16, 0, 393255, 6, 0, 393256, 6, 0, 393257, 12, 0, 393258, 21, 0, 393259, 21, 0, 393260, 21, 0, 393261, 21, 0, 393262, 15, 0, 393263, 6, 0, 393264, 6, 0, 393265, 17, 0, 393266, 18, 0, 393267, 9, 0, 393268, 21, 0, 393269, 21, 0, 393270, 21, 0, 393271, 21, 0, 393272, 21, 0, 393273, 21, 0, 393274, 21, 0, 393275, 21, 0, 393276, 21, 0, 393277, 21, 0, 393278, 21, 0, 393279, 21, 0, 393280, 21, 0, 393281, 21, 0, 393282, 21, 0, 393283, 15, 0, 393284, 6, 0, 393285, 16, 0, 393286, 6, 0, 393287, 12, 0, 393288, 21, 0, 393289, 21, 0, 393290, 21, 0, 393291, 21, 0, 393292, 8, 0, 393293, 20, 0, 393294, 6, 0, 393295, 6, 0, 393296, 6, 0, 393297, 6, 0, 393298, 6, 0, 393299, 6, 0, 393300, 6, 0, 393301, 12, 0, 393302, 21, 0, 393303, 21, 0, 393304, 21, 0, 393305, 21, 0, 393306, 21, 0, 393307, 15, 0, 393308, 6, 0, 393309, 6, 0, 393310, 6, 0, 393311, 6, 0, 393312, 6, 0, 524285, 6, 0, 524286, 6, 0, 524287, 6, 0, 458752, 6, 0, 458753, 6, 0, 458754, 17, 0, 458755, 18, 0, 458756, 19, 0, 458757, 18, 0, 458758, 9, 0, 458759, 21, 0, 458760, 21, 0, 458761, 8, 0, 458762, 18, 0, 458763, 18, 0, 458764, 19, 0, 458765, 18, 0, 458766, 18, 0, 458767, 20, 0, 458768, 6, 0, 458769, 6, 0, 458770, 6, 0, 458771, 6, 0, 458772, 6, 0, 458773, 12, 0, 458774, 21, 0, 458775, 21, 0, 458776, 21, 0, 458777, 8, 0, 458778, 20, 0, 458779, 6, 0, 458780, 6, 0, 458781, 12, 0, 458782, 21, 0, 458783, 21, 0, 458784, 21, 0, 458785, 21, 0, 458786, 21, 0, 458787, 21, 0, 458788, 15, 0, 458789, 6, 0, 458790, 6, 0, 458791, 6, 0, 458792, 6, 0, 458793, 12, 0, 458794, 21, 0, 458795, 21, 0, 458796, 21, 0, 458797, 21, 0, 458798, 15, 0, 458799, 6, 0, 458800, 6, 0, 458801, 6, 0, 458802, 6, 0, 458803, 17, 0, 458804, 9, 0, 458805, 21, 0, 458806, 21, 0, 458807, 21, 0, 458808, 21, 0, 458809, 21, 0, 458810, 21, 0, 458811, 21, 0, 458812, 21, 0, 458813, 21, 0, 458814, 21, 0, 458815, 21, 0, 458816, 21, 0, 458817, 21, 0, 458818, 21, 0, 458819, 15, 0, 458820, 6, 0, 458821, 6, 0, 458822, 6, 0, 458823, 17, 0, 458824, 18, 0, 458825, 9, 0, 458826, 21, 0, 458827, 21, 0, 458828, 15, 0, 458829, 6, 0, 458830, 6, 0, 458831, 6, 0, 458832, 6, 0, 458833, 6, 0, 458834, 6, 0, 458835, 6, 0, 458836, 6, 0, 458837, 12, 0, 458838, 21, 0, 458839, 21, 0, 458840, 21, 0, 458841, 21, 0, 458842, 21, 0, 458843, 13, 0, 458844, 4, 0, 458845, 6, 0, 458846, 11, 0, 458847, 6, 0, 458848, 6, 0, 589821, 6, 0, 589822, 6, 0, 589823, 16, 0, 524288, 6, 0, 524289, 6, 0, 524290, 11, 0, 524291, 6, 0, 524292, 6, 0, 524293, 6, 0, 524294, 12, 0, 524295, 21, 0, 524296, 21, 0, 524297, 15, 0, 524298, 6, 0, 524299, 6, 0, 524300, 6, 0, 524301, 11, 0, 524302, 6, 0, 524303, 6, 0, 524304, 11, 0, 524305, 6, 0, 524306, 6, 0, 524307, 11, 0, 524308, 6, 0, 524309, 7, 0, 524310, 21, 0, 524311, 21, 0, 524312, 21, 0, 524313, 15, 0, 524314, 6, 0, 524315, 6, 0, 524316, 6, 0, 524317, 7, 0, 524318, 21, 0, 524319, 21, 0, 524320, 8, 0, 524321, 18, 0, 524322, 18, 0, 524323, 18, 0, 524324, 20, 0, 524325, 6, 0, 524326, 6, 0, 524327, 0, 0, 524328, 2, 0, 524329, 14, 0, 524330, 21, 0, 524331, 21, 0, 524332, 21, 0, 524333, 21, 0, 524334, 15, 0, 524335, 6, 0, 524336, 6, 0, 524337, 6, 0, 524338, 6, 0, 524339, 6, 0, 524340, 12, 0, 524341, 21, 0, 524342, 21, 0, 524343, 21, 0, 524344, 21, 0, 524345, 21, 0, 524346, 21, 0, 524347, 21, 0, 524348, 21, 0, 524349, 21, 0, 524350, 21, 0, 524351, 21, 0, 524352, 21, 0, 524353, 21, 0, 524354, 21, 0, 524355, 15, 0, 524356, 6, 0, 524357, 6, 0, 524358, 16, 0, 524359, 6, 0, 524360, 6, 0, 524361, 7, 0, 524362, 21, 0, 524363, 21, 0, 524364, 13, 0, 524365, 4, 0, 524366, 6, 0, 524367, 6, 0, 524368, 6, 0, 524369, 6, 0, 524370, 11, 0, 524371, 6, 0, 524372, 6, 0, 524373, 17, 0, 524374, 9, 0, 524375, 21, 0, 524376, 21, 0, 524377, 21, 0, 524378, 21, 0, 524379, 21, 0, 524380, 15, 0, 524381, 6, 0, 524382, 6, 0, 524383, 6, 0, 524384, 6, 0, 655357, 6, 0, 655358, 6, 0, 655359, 6, 0, 589824, 11, 0, 589825, 6, 0, 589826, 6, 0, 589827, 6, 0, 589828, 16, 0, 589829, 6, 0, 589830, 12, 0, 589831, 21, 0, 589832, 21, 0, 589833, 15, 0, 589834, 6, 0, 589835, 16, 0, 589836, 6, 0, 589837, 6, 0, 589838, 6, 0, 589839, 6, 0, 589840, 6, 0, 589841, 6, 0, 589842, 6, 0, 589843, 6, 0, 589844, 6, 0, 589845, 12, 0, 589846, 21, 0, 589847, 21, 0, 589848, 21, 0, 589849, 15, 0, 589850, 16, 0, 589851, 6, 0, 589852, 6, 0, 589853, 12, 0, 589854, 21, 0, 589855, 21, 0, 589856, 15, 0, 589857, 6, 0, 589858, 6, 0, 589859, 6, 0, 589860, 6, 0, 589861, 6, 0, 589862, 0, 0, 589863, 14, 0, 589864, 21, 0, 589865, 21, 0, 589866, 21, 0, 589867, 21, 0, 589868, 21, 0, 589869, 21, 0, 589870, 15, 0, 589871, 6, 0, 589872, 6, 0, 589873, 0, 0, 589874, 2, 0, 589875, 2, 0, 589876, 14, 0, 589877, 21, 0, 589878, 21, 0, 589879, 21, 0, 589880, 21, 0, 589881, 21, 0, 589882, 21, 0, 589883, 8, 0, 589884, 18, 0, 589885, 18, 0, 589886, 19, 0, 589887, 18, 0, 589888, 9, 0, 589889, 21, 0, 589890, 21, 0, 589891, 13, 0, 589892, 3, 0, 589893, 3, 0, 589894, 2, 0, 589895, 3, 0, 589896, 2, 0, 589897, 14, 0, 589898, 21, 0, 589899, 21, 0, 589900, 21, 0, 589901, 15, 0, 589902, 6, 0, 589903, 6, 0, 589904, 16, 0, 589905, 6, 0, 589906, 6, 0, 589907, 6, 0, 589908, 6, 0, 589909, 6, 0, 589910, 17, 0, 589911, 9, 0, 589912, 21, 0, 589913, 21, 0, 589914, 21, 0, 589915, 21, 0, 589916, 13, 0, 589917, 4, 0, 589918, 6, 0, 589919, 6, 0, 589920, 6, 0, 720893, 6, 0, 720894, 6, 0, 720895, 6, 0, 655360, 6, 0, 655361, 6, 0, 655362, 11, 0, 655363, 6, 0, 655364, 6, 0, 655365, 6, 0, 655366, 12, 0, 655367, 21, 0, 655368, 21, 0, 655369, 15, 0, 655370, 6, 0, 655371, 6, 0, 655372, 6, 0, 655373, 6, 0, 655374, 11, 0, 655375, 6, 0, 655376, 6, 0, 655377, 6, 0, 655378, 6, 0, 655379, 6, 0, 655380, 6, 0, 655381, 7, 0, 655382, 21, 0, 655383, 21, 0, 655384, 21, 0, 655385, 15, 0, 655386, 6, 0, 655387, 6, 0, 655388, 6, 0, 655389, 12, 0, 655390, 21, 0, 655391, 21, 0, 655392, 15, 0, 655393, 6, 0, 655394, 6, 0, 655395, 6, 0, 655396, 6, 0, 655397, 6, 0, 655398, 12, 0, 655399, 21, 0, 655400, 21, 0, 655401, 21, 0, 655402, 21, 0, 655403, 21, 0, 655404, 21, 0, 655405, 21, 0, 655406, 15, 0, 655407, 6, 0, 655408, 6, 0, 655409, 12, 0, 655410, 21, 0, 655411, 21, 0, 655412, 21, 0, 655413, 21, 0, 655414, 21, 0, 655415, 21, 0, 655416, 21, 0, 655417, 21, 0, 655418, 21, 0, 655419, 15, 0, 655420, 6, 0, 655421, 6, 0, 655422, 16, 0, 655423, 6, 0, 655424, 17, 0, 655425, 9, 0, 655426, 21, 0, 655427, 21, 0, 655428, 21, 0, 655429, 21, 0, 655430, 21, 0, 655431, 21, 0, 655432, 21, 0, 655433, 21, 0, 655434, 21, 0, 655435, 21, 0, 655436, 21, 0, 655437, 13, 0, 655438, 4, 0, 655439, 6, 0, 655440, 6, 0, 655441, 6, 0, 655442, 6, 0, 655443, 6, 0, 655444, 6, 0, 655445, 6, 0, 655446, 6, 0, 655447, 12, 0, 655448, 21, 0, 655449, 21, 0, 655450, 21, 0, 655451, 21, 0, 655452, 21, 0, 655453, 10, 0, 655454, 6, 0, 655455, 6, 0, 655456, 6, 0, 786429, 6, 0, 786430, 6, 0, 786431, 6, 0, 720896, 6, 0, 720897, 6, 0, 720898, 6, 0, 720899, 6, 0, 720900, 6, 0, 720901, 6, 0, 720902, 7, 0, 720903, 21, 0, 720904, 21, 0, 720905, 10, 0, 720906, 6, 0, 720907, 6, 0, 720908, 6, 0, 720909, 6, 0, 720910, 6, 0, 720911, 6, 0, 720912, 11, 0, 720913, 6, 0, 720914, 11, 0, 720915, 6, 0, 720916, 6, 0, 720917, 7, 0, 720918, 21, 0, 720919, 21, 0, 720920, 21, 0, 720921, 15, 0, 720922, 6, 0, 720923, 6, 0, 720924, 6, 0, 720925, 12, 0, 720926, 21, 0, 720927, 21, 0, 720928, 15, 0, 720929, 6, 0, 720930, 11, 0, 720931, 6, 0, 720932, 6, 0, 720933, 1, 0, 720934, 14, 0, 720935, 21, 0, 720936, 21, 0, 720937, 21, 0, 720938, 21, 0, 720939, 21, 0, 720940, 21, 0, 720941, 21, 0, 720942, 15, 0, 720943, 11, 0, 720944, 6, 0, 720945, 7, 0, 720946, 21, 0, 720947, 21, 0, 720948, 21, 0, 720949, 21, 0, 720950, 21, 0, 720951, 21, 0, 720952, 21, 0, 720953, 21, 0, 720954, 21, 0, 720955, 15, 0, 720956, 11, 0, 720957, 6, 0, 720958, 6, 0, 720959, 6, 0, 720960, 6, 0, 720961, 12, 0, 720962, 21, 0, 720963, 21, 0, 720964, 21, 0, 720965, 21, 0, 720966, 21, 0, 720967, 21, 0, 720968, 21, 0, 720969, 21, 0, 720970, 21, 0, 720971, 21, 0, 720972, 21, 0, 720973, 21, 0, 720974, 15, 0, 720975, 6, 0, 720976, 6, 0, 720977, 6, 0, 720978, 6, 0, 720979, 6, 0, 720980, 6, 0, 720981, 11, 0, 720982, 6, 0, 720983, 12, 0, 720984, 21, 0, 720985, 21, 0, 720986, 21, 0, 720987, 21, 0, 720988, 21, 0, 720989, 10, 0, 720990, 6, 0, 720991, 6, 0, 720992, 6, 0, 851965, 6, 0, 851966, 6, 0, 851967, 6, 0, 786432, 1, 0, 786433, 3, 0, 786434, 3, 0, 786435, 3, 0, 786436, 3, 0, 786437, 3, 0, 786438, 14, 0, 786439, 21, 0, 786440, 21, 0, 786441, 13, 0, 786442, 3, 0, 786443, 4, 0, 786444, 6, 0, 786445, 1, 0, 786446, 2, 0, 786447, 2, 0, 786448, 2, 0, 786449, 3, 0, 786450, 2, 0, 786451, 2, 0, 786452, 2, 0, 786453, 14, 0, 786454, 21, 0, 786455, 21, 0, 786456, 21, 0, 786457, 15, 0, 786458, 6, 0, 786459, 6, 0, 786460, 16, 0, 786461, 7, 0, 786462, 21, 0, 786463, 21, 0, 786464, 15, 0, 786465, 6, 0, 786466, 6, 0, 786467, 6, 0, 786468, 6, 0, 786469, 12, 0, 786470, 21, 0, 786471, 21, 0, 786472, 21, 0, 786473, 21, 0, 786474, 21, 0, 786475, 21, 0, 786476, 8, 0, 786477, 19, 0, 786478, 20, 0, 786479, 6, 0, 786480, 6, 0, 786481, 7, 0, 786482, 21, 0, 786483, 21, 0, 786484, 21, 0, 786485, 21, 0, 786486, 21, 0, 786487, 21, 0, 786488, 21, 0, 786489, 21, 0, 786490, 21, 0, 786491, 15, 0, 786492, 6, 0, 786493, 6, 0, 786494, 6, 0, 786495, 6, 0, 786496, 6, 0, 786497, 17, 0, 786498, 9, 0, 786499, 21, 0, 786500, 21, 0, 786501, 21, 0, 786502, 21, 0, 786503, 21, 0, 786504, 21, 0, 786505, 21, 0, 786506, 21, 0, 786507, 21, 0, 786508, 21, 0, 786509, 21, 0, 786510, 13, 0, 786511, 4, 0, 786512, 6, 0, 786513, 16, 0, 786514, 6, 0, 786515, 6, 0, 786516, 6, 0, 786517, 6, 0, 786518, 6, 0, 786519, 17, 0, 786520, 9, 0, 786521, 21, 0, 786522, 21, 0, 786523, 21, 0, 786524, 21, 0, 786525, 10, 0, 786526, 6, 0, 786527, 16, 0, 786528, 6, 0, 917501, 6, 0, 917502, 6, 0, 917503, 6, 0, 851968, 12, 0, 851969, 21, 0, 851970, 21, 0, 851971, 21, 0, 851972, 21, 0, 851973, 21, 0, 851974, 21, 0, 851975, 21, 0, 851976, 21, 0, 851977, 21, 0, 851978, 21, 0, 851979, 13, 0, 851980, 3, 0, 851981, 14, 0, 851982, 21, 0, 851983, 21, 0, 851984, 21, 0, 851985, 21, 0, 851986, 21, 0, 851987, 21, 0, 851988, 21, 0, 851989, 21, 0, 851990, 21, 0, 851991, 21, 0, 851992, 21, 0, 851993, 15, 0, 851994, 6, 0, 851995, 6, 0, 851996, 6, 0, 851997, 7, 0, 851998, 21, 0, 851999, 21, 0, 852000, 15, 0, 852001, 6, 0, 852002, 6, 0, 852003, 6, 0, 852004, 6, 0, 852005, 12, 0, 852006, 21, 0, 852007, 21, 0, 852008, 21, 0, 852009, 21, 0, 852010, 21, 0, 852011, 8, 0, 852012, 6, 0, 852013, 6, 0, 852014, 6, 0, 852015, 6, 0, 852016, 6, 0, 852017, 12, 0, 852018, 21, 0, 852019, 21, 0, 852020, 21, 0, 852021, 21, 0, 852022, 21, 0, 852023, 21, 0, 852024, 21, 0, 852025, 21, 0, 852026, 21, 0, 852027, 15, 0, 852028, 6, 0, 852029, 6, 0, 852030, 6, 0, 852031, 6, 0, 852032, 6, 0, 852033, 6, 0, 852034, 12, 0, 852035, 21, 0, 852036, 21, 0, 852037, 21, 0, 852038, 21, 0, 852039, 21, 0, 852040, 21, 0, 852041, 21, 0, 852042, 21, 0, 852043, 21, 0, 852044, 21, 0, 852045, 21, 0, 852046, 8, 0, 852047, 20, 0, 852048, 6, 0, 852049, 6, 0, 852050, 6, 0, 852051, 6, 0, 852052, 6, 0, 852053, 6, 0, 852054, 6, 0, 852055, 6, 0, 852056, 12, 0, 852057, 21, 0, 852058, 21, 0, 852059, 21, 0, 852060, 21, 0, 852061, 10, 0, 852062, 6, 0, 852063, 6, 0, 852064, 6, 0, 983037, 6, 0, 983038, 6, 0, 983039, 6, 0, 917504, 12, 0, 917505, 21, 0, 917506, 8, 0, 917507, 18, 0, 917508, 9, 0, 917509, 21, 0, 917510, 21, 0, 917511, 21, 0, 917512, 21, 0, 917513, 21, 0, 917514, 21, 0, 917515, 21, 0, 917516, 21, 0, 917517, 21, 0, 917518, 21, 0, 917519, 21, 0, 917520, 21, 0, 917521, 21, 0, 917522, 21, 0, 917523, 21, 0, 917524, 21, 0, 917525, 21, 0, 917526, 21, 0, 917527, 21, 0, 917528, 21, 0, 917529, 15, 0, 917530, 6, 0, 917531, 6, 0, 917532, 6, 0, 917533, 7, 0, 917534, 21, 0, 917535, 21, 0, 917536, 15, 0, 917537, 6, 0, 917538, 11, 0, 917539, 6, 0, 917540, 6, 0, 917541, 17, 0, 917542, 19, 0, 917543, 18, 0, 917544, 19, 0, 917545, 19, 0, 917546, 18, 0, 917547, 20, 0, 917548, 6, 0, 917549, 6, 0, 917550, 6, 0, 917551, 6, 0, 917552, 11, 0, 917553, 7, 0, 917554, 21, 0, 917555, 21, 0, 917556, 21, 0, 917557, 21, 0, 917558, 21, 0, 917559, 21, 0, 917560, 21, 0, 917561, 21, 0, 917562, 21, 0, 917563, 15, 0, 917564, 6, 0, 917565, 11, 0, 917566, 6, 0, 917567, 6, 0, 917568, 6, 0, 917569, 0, 0, 917570, 14, 0, 917571, 21, 0, 917572, 21, 0, 917573, 8, 0, 917574, 18, 0, 917575, 9, 0, 917576, 21, 0, 917577, 21, 0, 917578, 21, 0, 917579, 21, 0, 917580, 21, 0, 917581, 8, 0, 917582, 20, 0, 917583, 6, 0, 917584, 6, 0, 917585, 6, 0, 917586, 6, 0, 917587, 6, 0, 917588, 6, 0, 917589, 6, 0, 917590, 6, 0, 917591, 6, 0, 917592, 17, 0, 917593, 9, 0, 917594, 21, 0, 917595, 21, 0, 917596, 21, 0, 917597, 10, 0, 917598, 6, 0, 917599, 6, 0, 917600, 6, 0, 1048573, 6, 0, 1048574, 16, 0, 1048575, 6, 0, 983040, 12, 0, 983041, 21, 0, 983042, 10, 0, 983043, 11, 0, 983044, 12, 0, 983045, 21, 0, 983046, 21, 0, 983047, 21, 0, 983048, 8, 0, 983049, 19, 0, 983050, 9, 0, 983051, 21, 0, 983052, 21, 0, 983053, 21, 0, 983054, 8, 0, 983055, 18, 0, 983056, 9, 0, 983057, 21, 0, 983058, 21, 0, 983059, 21, 0, 983060, 21, 0, 983061, 21, 0, 983062, 21, 0, 983063, 8, 0, 983064, 18, 0, 983065, 20, 0, 983066, 6, 0, 983067, 11, 0, 983068, 6, 0, 983069, 7, 0, 983070, 21, 0, 983071, 21, 0, 983072, 15, 0, 983073, 6, 0, 983074, 6, 0, 983075, 6, 0, 983076, 6, 0, 983077, 6, 0, 983078, 6, 0, 983079, 6, 0, 983080, 11, 0, 983081, 6, 0, 983082, 6, 0, 983083, 6, 0, 983084, 6, 0, 983085, 6, 0, 983086, 16, 0, 983087, 6, 0, 983088, 6, 0, 983089, 12, 0, 983090, 21, 0, 983091, 21, 0, 983092, 21, 0, 983093, 21, 0, 983094, 21, 0, 983095, 21, 0, 983096, 21, 0, 983097, 21, 0, 983098, 21, 0, 983099, 15, 0, 983100, 6, 0, 983101, 6, 0, 983102, 6, 0, 983103, 1, 0, 983104, 3, 0, 983105, 14, 0, 983106, 21, 0, 983107, 21, 0, 983108, 8, 0, 983109, 20, 0, 983110, 6, 0, 983111, 12, 0, 983112, 21, 0, 983113, 21, 0, 983114, 21, 0, 983115, 21, 0, 983116, 8, 0, 983117, 20, 0, 983118, 6, 0, 983119, 6, 0, 983120, 11, 0, 983121, 6, 0, 983122, 6, 0, 983123, 11, 0, 983124, 6, 0, 983125, 6, 0, 983126, 6, 0, 983127, 6, 0, 983128, 6, 0, 983129, 12, 0, 983130, 21, 0, 983131, 21, 0, 983132, 21, 0, 983133, 10, 0, 983134, 6, 0, 983135, 6, 0, 983136, 6, 0, 1114109, 6, 0, 1114110, 6, 0, 1114111, 6, 0, 1048576, 12, 0, 1048577, 21, 0, 1048578, 13, 0, 1048579, 2, 0, 1048580, 14, 0, 1048581, 21, 0, 1048582, 21, 0, 1048583, 21, 0, 1048584, 15, 0, 1048585, 6, 0, 1048586, 12, 0, 1048587, 21, 0, 1048588, 21, 0, 1048589, 21, 0, 1048590, 15, 0, 1048591, 16, 0, 1048592, 7, 0, 1048593, 21, 0, 1048594, 21, 0, 1048595, 21, 0, 1048596, 21, 0, 1048597, 8, 0, 1048598, 18, 0, 1048599, 20, 0, 1048600, 6, 0, 1048601, 6, 0, 1048602, 6, 0, 1048603, 6, 0, 1048604, 6, 0, 1048605, 7, 0, 1048606, 21, 0, 1048607, 21, 0, 1048608, 15, 0, 1048609, 6, 0, 1048610, 6, 0, 1048611, 16, 0, 1048612, 6, 0, 1048613, 6, 0, 1048614, 6, 0, 1048615, 6, 0, 1048616, 6, 0, 1048617, 6, 0, 1048618, 6, 0, 1048619, 6, 0, 1048620, 11, 0, 1048621, 6, 0, 1048622, 6, 0, 1048623, 6, 0, 1048624, 6, 0, 1048625, 12, 0, 1048626, 21, 0, 1048627, 21, 0, 1048628, 21, 0, 1048629, 21, 0, 1048630, 21, 0, 1048631, 21, 0, 1048632, 21, 0, 1048633, 21, 0, 1048634, 21, 0, 1048635, 15, 0, 1048636, 6, 0, 1048637, 6, 0, 1048638, 6, 0, 1048639, 12, 0, 1048640, 21, 0, 1048641, 21, 0, 1048642, 21, 0, 1048643, 21, 0, 1048644, 15, 0, 1048645, 6, 0, 1048646, 6, 0, 1048647, 12, 0, 1048648, 21, 0, 1048649, 21, 0, 1048650, 21, 0, 1048651, 8, 0, 1048652, 20, 0, 1048653, 6, 0, 1048654, 6, 0, 1048655, 6, 0, 1048656, 6, 0, 1048657, 6, 0, 1048658, 6, 0, 1048659, 6, 0, 1048660, 6, 0, 1048661, 6, 0, 1048662, 6, 0, 1048663, 6, 0, 1048664, 6, 0, 1048665, 12, 0, 1048666, 21, 0, 1048667, 21, 0, 1048668, 21, 0, 1048669, 10, 0, 1048670, 6, 0, 1048671, 6, 0, 1048672, 6, 0, 1179645, 6, 0, 1179646, 6, 0, 1179647, 6, 0, 1114112, 12, 0, 1114113, 21, 0, 1114114, 21, 0, 1114115, 21, 0, 1114116, 21, 0, 1114117, 21, 0, 1114118, 21, 0, 1114119, 21, 0, 1114120, 15, 0, 1114121, 6, 0, 1114122, 12, 0, 1114123, 21, 0, 1114124, 21, 0, 1114125, 21, 0, 1114126, 13, 0, 1114127, 2, 0, 1114128, 14, 0, 1114129, 21, 0, 1114130, 21, 0, 1114131, 21, 0, 1114132, 21, 0, 1114133, 15, 0, 1114134, 6, 0, 1114135, 11, 0, 1114136, 6, 0, 1114137, 6, 0, 1114138, 0, 0, 1114139, 2, 0, 1114140, 4, 0, 1114141, 7, 0, 1114142, 21, 0, 1114143, 21, 0, 1114144, 15, 0, 1114145, 6, 0, 1114146, 16, 0, 1114147, 6, 0, 1114148, 0, 0, 1114149, 2, 0, 1114150, 2, 0, 1114151, 2, 0, 1114152, 4, 0, 1114153, 6, 0, 1114154, 6, 0, 1114155, 6, 0, 1114156, 6, 0, 1114157, 6, 0, 1114158, 0, 0, 1114159, 2, 0, 1114160, 2, 0, 1114161, 14, 0, 1114162, 21, 0, 1114163, 21, 0, 1114164, 21, 0, 1114165, 21, 0, 1114166, 21, 0, 1114167, 21, 0, 1114168, 21, 0, 1114169, 21, 0, 1114170, 21, 0, 1114171, 15, 0, 1114172, 6, 0, 1114173, 6, 0, 1114174, 6, 0, 1114175, 17, 0, 1114176, 18, 0, 1114177, 18, 0, 1114178, 19, 0, 1114179, 18, 0, 1114180, 20, 0, 1114181, 6, 0, 1114182, 6, 0, 1114183, 17, 0, 1114184, 19, 0, 1114185, 18, 0, 1114186, 18, 0, 1114187, 20, 0, 1114188, 6, 0, 1114189, 6, 0, 1114190, 6, 0, 1114191, 20, 0, 1114192, 6, 0, 1114193, 6, 0, 1114194, 6, 0, 1114195, 6, 0, 1114196, 6, 0, 1114197, 6, 0, 1114198, 6, 0, 1114199, 6, 0, 1114200, 6, 0, 1114201, 12, 0, 1114202, 21, 0, 1114203, 21, 0, 1114204, 21, 0, 1114205, 10, 0, 1114206, 6, 0, 1114207, 6, 0, 1114208, 6, 0, 1245181, 6, 0, 1245182, 6, 0, 1245183, 6, 0, 1179648, 17, 0, 1179649, 18, 0, 1179650, 9, 0, 1179651, 21, 0, 1179652, 21, 0, 1179653, 21, 0, 1179654, 21, 0, 1179655, 21, 0, 1179656, 20, 0, 1179657, 6, 0, 1179658, 17, 0, 1179659, 9, 0, 1179660, 21, 0, 1179661, 21, 0, 1179662, 21, 0, 1179663, 21, 0, 1179664, 21, 0, 1179665, 21, 0, 1179666, 21, 0, 1179667, 21, 0, 1179668, 21, 0, 1179669, 13, 0, 1179670, 4, 0, 1179671, 6, 0, 1179672, 6, 0, 1179673, 6, 0, 1179674, 12, 0, 1179675, 21, 0, 1179676, 15, 0, 1179677, 7, 0, 1179678, 21, 0, 1179679, 21, 0, 1179680, 15, 0, 1179681, 6, 0, 1179682, 6, 0, 1179683, 6, 0, 1179684, 7, 0, 1179685, 21, 0, 1179686, 21, 0, 1179687, 21, 0, 1179688, 21, 0, 1179689, 2, 0, 1179690, 4, 0, 1179691, 6, 0, 1179692, 6, 0, 1179693, 6, 0, 1179694, 12, 0, 1179695, 21, 0, 1179696, 21, 0, 1179697, 21, 0, 1179698, 21, 0, 1179699, 21, 0, 1179700, 21, 0, 1179701, 21, 0, 1179702, 21, 0, 1179703, 21, 0, 1179704, 21, 0, 1179705, 21, 0, 1179706, 21, 0, 1179707, 15, 0, 1179708, 6, 0, 1179709, 11, 0, 1179710, 6, 0, 1179711, 6, 0, 1179712, 6, 0, 1179713, 6, 0, 1179714, 6, 0, 1179715, 6, 0, 1179716, 11, 0, 1179717, 6, 0, 1179718, 6, 0, 1179719, 6, 0, 1179720, 6, 0, 1179721, 6, 0, 1179722, 16, 0, 1179723, 6, 0, 1179724, 6, 0, 1179725, 6, 0, 1179726, 6, 0, 1179727, 6, 0, 1179728, 6, 0, 1179729, 6, 0, 1179730, 6, 0, 1179731, 6, 0, 1179732, 6, 0, 1179733, 11, 0, 1179734, 11, 0, 1179735, 6, 0, 1179736, 1, 0, 1179737, 14, 0, 1179738, 21, 0, 1179739, 21, 0, 1179740, 21, 0, 1179741, 10, 0, 1179742, 6, 0, 1179743, 6, 0, 1179744, 6, 0, 1310717, 6, 0, 1310718, 6, 0, 1310719, 6, 0, 1245184, 6, 0, 1245185, 6, 0, 1245186, 17, 0, 1245187, 9, 0, 1245188, 21, 0, 1245189, 21, 0, 1245190, 21, 0, 1245191, 21, 0, 1245192, 6, 0, 1245193, 6, 0, 1245194, 6, 0, 1245195, 17, 0, 1245196, 9, 0, 1245197, 21, 0, 1245198, 21, 0, 1245199, 21, 0, 1245200, 21, 0, 1245201, 21, 0, 1245202, 21, 0, 1245203, 21, 0, 1245204, 21, 0, 1245205, 21, 0, 1245206, 20, 0, 1245207, 6, 0, 1245208, 11, 0, 1245209, 6, 0, 1245210, 12, 0, 1245211, 21, 0, 1245212, 15, 0, 1245213, 7, 0, 1245214, 21, 0, 1245215, 21, 0, 1245216, 15, 0, 1245217, 6, 0, 1245218, 6, 0, 1245219, 6, 0, 1245220, 7, 0, 1245221, 21, 0, 1245222, 21, 0, 1245223, 21, 0, 1245224, 21, 0, 1245225, 21, 0, 1245226, 15, 0, 1245227, 6, 0, 1245228, 6, 0, 1245229, 6, 0, 1245230, 12, 0, 1245231, 21, 0, 1245232, 21, 0, 1245233, 21, 0, 1245234, 21, 0, 1245235, 21, 0, 1245236, 21, 0, 1245237, 21, 0, 1245238, 21, 0, 1245239, 21, 0, 1245240, 21, 0, 1245241, 21, 0, 1245242, 21, 0, 1245243, 15, 0, 1245244, 6, 0, 1245245, 6, 0, 1245246, 6, 0, 1245247, 6, 0, 1245248, 6, 0, 1245249, 6, 0, 1245250, 6, 0, 1245251, 16, 0, 1245252, 6, 0, 1245253, 6, 0, 1245254, 6, 0, 1245255, 6, 0, 1245256, 6, 0, 1245257, 6, 0, 1245258, 6, 0, 1245259, 6, 0, 1245260, 6, 0, 1245261, 6, 0, 1245262, 6, 0, 1245263, 11, 0, 1245264, 6, 0, 1245265, 6, 0, 1245266, 16, 0, 1245267, 6, 0, 1245268, 6, 0, 1245269, 6, 0, 1245270, 6, 0, 1245271, 6, 0, 1245272, 12, 0, 1245273, 21, 0, 1245274, 21, 0, 1245275, 21, 0, 1245276, 21, 0, 1245277, 10, 0, 1245278, 6, 0, 1245279, 11, 0, 1245280, 6, 0, 1376253, 6, 0, 1376254, 11, 0, 1376255, 6, 0, 1310720, 6, 0, 1310721, 6, 0, 1310722, 6, 0, 1310723, 17, 0, 1310724, 18, 0, 1310725, 18, 0, 1310726, 18, 0, 1310727, 20, 0, 1310728, 6, 0, 1310729, 6, 0, 1310730, 6, 0, 1310731, 6, 0, 1310732, 17, 0, 1310733, 18, 0, 1310734, 19, 0, 1310735, 18, 0, 1310736, 18, 0, 1310737, 9, 0, 1310738, 21, 0, 1310739, 21, 0, 1310740, 8, 0, 1310741, 18, 0, 1310742, 6, 0, 1310743, 6, 0, 1310744, 6, 0, 1310745, 6, 0, 1310746, 12, 0, 1310747, 21, 0, 1310748, 15, 0, 1310749, 7, 0, 1310750, 21, 0, 1310751, 21, 0, 1310752, 15, 0, 1310753, 6, 0, 1310754, 6, 0, 1310755, 6, 0, 1310756, 7, 0, 1310757, 21, 0, 1310758, 21, 0, 1310759, 21, 0, 1310760, 21, 0, 1310761, 21, 0, 1310762, 15, 0, 1310763, 6, 0, 1310764, 16, 0, 1310765, 6, 0, 1310766, 12, 0, 1310767, 21, 0, 1310768, 21, 0, 1310769, 21, 0, 1310770, 21, 0, 1310771, 21, 0, 1310772, 21, 0, 1310773, 21, 0, 1310774, 21, 0, 1310775, 21, 0, 1310776, 21, 0, 1310777, 21, 0, 1310778, 21, 0, 1310779, 13, 0, 1310780, 2, 0, 1310781, 2, 0, 1310782, 3, 0, 1310783, 3, 0, 1310784, 2, 0, 1310785, 2, 0, 1310786, 3, 0, 1310787, 4, 0, 1310788, 6, 0, 1310789, 6, 0, 1310790, 6, 0, 1310791, 6, 0, 1310792, 6, 0, 1310793, 6, 0, 1310794, 6, 0, 1310795, 0, 0, 1310796, 6, 0, 1310797, 6, 0, 1310798, 6, 0, 1310799, 6, 0, 1310800, 6, 0, 1310801, 6, 0, 1310802, 6, 0, 1310803, 6, 0, 1310804, 6, 0, 1310805, 6, 0, 1310806, 6, 0, 1310807, 6, 0, 1310808, 12, 0, 1310809, 21, 0, 1310810, 21, 0, 1310811, 21, 0, 1310812, 21, 0, 1310813, 10, 0, 1310814, 6, 0, 1310815, 6, 0, 1310816, 6, 0, 1441789, 6, 0, 1441790, 6, 0, 1441791, 6, 0, 1376256, 6, 0, 1376257, 6, 0, 1376258, 6, 0, 1376259, 6, 0, 1376260, 6, 0, 1376261, 6, 0, 1376262, 6, 0, 1376263, 6, 0, 1376264, 16, 0, 1376265, 6, 0, 1376266, 6, 0, 1376267, 6, 0, 1376268, 6, 0, 1376269, 6, 0, 1376270, 6, 0, 1376271, 6, 0, 1376272, 11, 0, 1376273, 7, 0, 1376274, 21, 0, 1376275, 21, 0, 1376276, 15, 0, 1376277, 6, 0, 1376278, 6, 0, 1376279, 0, 0, 1376280, 2, 0, 1376281, 2, 0, 1376282, 14, 0, 1376283, 21, 0, 1376284, 13, 0, 1376285, 14, 0, 1376286, 21, 0, 1376287, 21, 0, 1376288, 15, 0, 1376289, 6, 0, 1376290, 6, 0, 1376291, 6, 0, 1376292, 7, 0, 1376293, 21, 0, 1376294, 21, 0, 1376295, 21, 0, 1376296, 21, 0, 1376297, 21, 0, 1376298, 13, 0, 1376299, 4, 0, 1376300, 6, 0, 1376301, 6, 0, 1376302, 12, 0, 1376303, 21, 0, 1376304, 21, 0, 1376305, 21, 0, 1376306, 21, 0, 1376307, 21, 0, 1376308, 21, 0, 1376309, 21, 0, 1376310, 21, 0, 1376311, 21, 0, 1376312, 21, 0, 1376313, 21, 0, 1376314, 21, 0, 1376315, 21, 0, 1376316, 21, 0, 1376317, 21, 0, 1376318, 21, 0, 1376319, 21, 0, 1376320, 21, 0, 1376321, 21, 0, 1376322, 21, 0, 1376323, 13, 0, 1376324, 4, 0, 1376325, 6, 0, 1376326, 11, 0, 1376327, 6, 0, 1376328, 6, 0, 1376329, 6, 0, 1376330, 6, 0, 1376331, 12, 0, 1376332, 21, 0, 1376333, 6, 0, 1376334, 6, 0, 1376335, 6, 0, 1376336, 6, 0, 1376337, 6, 0, 1376338, 6, 0, 1376339, 6, 0, 1376340, 6, 0, 1376341, 6, 0, 1376342, 6, 0, 1376343, 0, 0, 1376344, 14, 0, 1376345, 21, 0, 1376346, 21, 0, 1376347, 21, 0, 1376348, 21, 0, 1376349, 10, 0, 1376350, 6, 0, 1376351, 6, 0, 1376352, 6, 0, 1507325, 6, 0, 1507326, 6, 0, 1507327, 6, 0, 1441792, 0, 0, 1441793, 2, 0, 1441794, 3, 0, 1441795, 2, 0, 1441796, 3, 0, 1441797, 2, 0, 1441798, 4, 0, 1441799, 6, 0, 1441800, 6, 0, 1441801, 1, 0, 1441802, 2, 0, 1441803, 2, 0, 1441804, 3, 0, 1441805, 2, 0, 1441806, 4, 0, 1441807, 6, 0, 1441808, 6, 0, 1441809, 7, 0, 1441810, 21, 0, 1441811, 21, 0, 1441812, 15, 0, 1441813, 16, 0, 1441814, 6, 0, 1441815, 12, 0, 1441816, 21, 0, 1441817, 21, 0, 1441818, 21, 0, 1441819, 21, 0, 1441820, 21, 0, 1441821, 21, 0, 1441822, 21, 0, 1441823, 21, 0, 1441824, 15, 0, 1441825, 6, 0, 1441826, 11, 0, 1441827, 6, 0, 1441828, 7, 0, 1441829, 21, 0, 1441830, 21, 0, 1441831, 21, 0, 1441832, 21, 0, 1441833, 21, 0, 1441834, 21, 0, 1441835, 15, 0, 1441836, 6, 0, 1441837, 1, 0, 1441838, 14, 0, 1441839, 21, 0, 1441840, 21, 0, 1441841, 21, 0, 1441842, 21, 0, 1441843, 21, 0, 1441844, 21, 0, 1441845, 21, 0, 1441846, 21, 0, 1441847, 21, 0, 1441848, 21, 0, 1441849, 21, 0, 1441850, 21, 0, 1441851, 21, 0, 1441852, 21, 0, 1441853, 21, 0, 1441854, 21, 0, 1441855, 21, 0, 1441856, 21, 0, 1441857, 21, 0, 1441858, 21, 0, 1441859, 21, 0, 1441860, 15, 0, 1441861, 6, 0, 1441862, 6, 0, 1441863, 6, 0, 1441864, 6, 0, 1441865, 6, 0, 1441866, 6, 0, 1441867, 12, 0, 1441868, 21, 0, 1441869, 21, 0, 1441870, 21, 0, 1441871, 21, 0, 1441872, 4, 0, 1441873, 6, 0, 1441874, 6, 0, 1441875, 6, 0, 1441876, 6, 0, 1441877, 6, 0, 1441878, 6, 0, 1441879, 12, 0, 1441880, 21, 0, 1441881, 21, 0, 1441882, 21, 0, 1441883, 21, 0, 1441884, 21, 0, 1441885, 10, 0, 1441886, 6, 0, 1441887, 6, 0, 1441888, 6, 0, 1572861, 6, 0, 1572862, 6, 0, 1572863, 6, 0, 1507328, 12, 0, 1507329, 21, 0, 1507330, 21, 0, 1507331, 21, 0, 1507332, 21, 0, 1507333, 21, 0, 1507334, 15, 0, 1507335, 6, 0, 1507336, 6, 0, 1507337, 7, 0, 1507338, 21, 0, 1507339, 21, 0, 1507340, 21, 0, 1507341, 21, 0, 1507342, 13, 0, 1507343, 4, 0, 1507344, 6, 0, 1507345, 7, 0, 1507346, 21, 0, 1507347, 21, 0, 1507348, 15, 0, 1507349, 6, 0, 1507350, 6, 0, 1507351, 12, 0, 1507352, 21, 0, 1507353, 21, 0, 1507354, 21, 0, 1507355, 21, 0, 1507356, 21, 0, 1507357, 21, 0, 1507358, 21, 0, 1507359, 21, 0, 1507360, 13, 0, 1507361, 3, 0, 1507362, 4, 0, 1507363, 6, 0, 1507364, 12, 0, 1507365, 21, 0, 1507366, 21, 0, 1507367, 21, 0, 1507368, 21, 0, 1507369, 21, 0, 1507370, 21, 0, 1507371, 13, 0, 1507372, 2, 0, 1507373, 14, 0, 1507374, 21, 0, 1507375, 21, 0, 1507376, 21, 0, 1507377, 21, 0, 1507378, 21, 0, 1507379, 21, 0, 1507380, 21, 0, 1507381, 21, 0, 1507382, 21, 0, 1507383, 21, 0, 1507384, 21, 0, 1507385, 21, 0, 1507386, 21, 0, 1507387, 21, 0, 1507388, 21, 0, 1507389, 21, 0, 1507390, 21, 0, 1507391, 21, 0, 1507392, 21, 0, 1507393, 21, 0, 1507394, 21, 0, 1507395, 21, 0, 1507396, 13, 0, 1507397, 4, 0, 1507398, 6, 0, 1507399, 6, 0, 1507400, 6, 0, 1507401, 6, 0, 1507402, 1, 0, 1507403, 14, 0, 1507404, 21, 0, 1507405, 21, 0, 1507406, 21, 0, 1507407, 21, 0, 1507408, 13, 0, 1507409, 4, 0, 1507410, 6, 0, 1507411, 6, 0, 1507412, 6, 0, 1507413, 11, 0, 1507414, 6, 0, 1507415, 12, 0, 1507416, 21, 0, 1507417, 21, 0, 1507418, 21, 0, 1507419, 21, 0, 1507420, 21, 0, 1507421, 10, 0, 1507422, 6, 0, 1507423, 6, 0, 1507424, 6, 0, 1638397, 6, 0, 1638398, 6, 0, 1638399, 6, 0, 1572864, 12, 0, 1572865, 21, 0, 1572866, 21, 0, 1572867, 21, 0, 1572868, 21, 0, 1572869, 21, 0, 1572870, 13, 0, 1572871, 3, 0, 1572872, 2, 0, 1572873, 14, 0, 1572874, 21, 0, 1572875, 21, 0, 1572876, 21, 0, 1572877, 21, 0, 1572878, 21, 0, 1572879, 15, 0, 1572880, 6, 0, 1572881, 7, 0, 1572882, 21, 0, 1572883, 21, 0, 1572884, 15, 0, 1572885, 6, 0, 1572886, 6, 0, 1572887, 12, 0, 1572888, 21, 0, 1572889, 21, 0, 1572890, 21, 0, 1572891, 21, 0, 1572892, 21, 0, 1572893, 21, 0, 1572894, 21, 0, 1572895, 21, 0, 1572896, 21, 0, 1572897, 21, 0, 1572898, 15, 0, 1572899, 6, 0, 1572900, 12, 0, 1572901, 21, 0, 1572902, 21, 0, 1572903, 21, 0, 1572904, 21, 0, 1572905, 21, 0, 1572906, 21, 0, 1572907, 21, 0, 1572908, 21, 0, 1572909, 21, 0, 1572910, 21, 0, 1572911, 21, 0, 1572912, 21, 0, 1572913, 21, 0, 1572914, 21, 0, 1572915, 21, 0, 1572916, 21, 0, 1572917, 21, 0, 1572918, 21, 0, 1572919, 21, 0, 1572920, 21, 0, 1572921, 21, 0, 1572922, 21, 0, 1572923, 21, 0, 1572924, 21, 0, 1572925, 21, 0, 1572926, 21, 0, 1572927, 21, 0, 1572928, 21, 0, 1572929, 21, 0, 1572930, 21, 0, 1572931, 21, 0, 1572932, 21, 0, 1572933, 15, 0, 1572934, 6, 0, 1572935, 6, 0, 1572936, 11, 0, 1572937, 6, 0, 1572938, 12, 0, 1572939, 21, 0, 1572940, 21, 0, 1572941, 21, 0, 1572942, 21, 0, 1572943, 21, 0, 1572944, 21, 0, 1572945, 13, 0, 1572946, 2, 0, 1572947, 2, 0, 1572948, 2, 0, 1572949, 2, 0, 1572950, 2, 0, 1572951, 14, 0, 1572952, 21, 0, 1572953, 21, 0, 1572954, 21, 0, 1572955, 21, 0, 1572956, 8, 0, 1572957, 20, 0, 1572958, 6, 0, 1572959, 6, 0, 1572960, 6, 0, 1703933, 6, 0, 1703934, 6, 0, 1703935, 6, 0, 1638400, 12, 0, 1638401, 21, 0, 1638402, 21, 0, 1638403, 21, 0, 1638404, 21, 0, 1638405, 21, 0, 1638406, 21, 0, 1638407, 21, 0, 1638408, 21, 0, 1638409, 21, 0, 1638410, 21, 0, 1638411, 21, 0, 1638412, 21, 0, 1638413, 21, 0, 1638414, 21, 0, 1638415, 13, 0, 1638416, 4, 0, 1638417, 7, 0, 1638418, 21, 0, 1638419, 21, 0, 1638420, 15, 0, 1638421, 6, 0, 1638422, 11, 0, 1638423, 12, 0, 1638424, 21, 0, 1638425, 21, 0, 1638426, 21, 0, 1638427, 21, 0, 1638428, 21, 0, 1638429, 21, 0, 1638430, 21, 0, 1638431, 21, 0, 1638432, 21, 0, 1638433, 21, 0, 1638434, 13, 0, 1638435, 2, 0, 1638436, 14, 0, 1638437, 21, 0, 1638438, 21, 0, 1638439, 21, 0, 1638440, 21, 0, 1638441, 21, 0, 1638442, 21, 0, 1638443, 21, 0, 1638444, 21, 0, 1638445, 21, 0, 1638446, 21, 0, 1638447, 21, 0, 1638448, 21, 0, 1638449, 21, 0, 1638450, 21, 0, 1638451, 21, 0, 1638452, 21, 0, 1638453, 21, 0, 1638454, 21, 0, 1638455, 21, 0, 1638456, 21, 0, 1638457, 21, 0, 1638458, 21, 0, 1638459, 21, 0, 1638460, 21, 0, 1638461, 21, 0, 1638462, 21, 0, 1638463, 21, 0, 1638464, 21, 0, 1638465, 21, 0, 1638466, 21, 0, 1638467, 21, 0, 1638468, 21, 0, 1638469, 15, 0, 1638470, 6, 0, 1638471, 6, 0, 1638472, 6, 0, 1638473, 6, 0, 1638474, 12, 0, 1638475, 21, 0, 1638476, 21, 0, 1638477, 21, 0, 1638478, 21, 0, 1638479, 21, 0, 1638480, 21, 0, 1638481, 21, 0, 1638482, 21, 0, 1638483, 21, 0, 1638484, 21, 0, 1638485, 21, 0, 1638486, 21, 0, 1638487, 21, 0, 1638488, 21, 0, 1638489, 21, 0, 1638490, 21, 0, 1638491, 8, 0, 1638492, 20, 0, 1638493, 6, 0, 1638494, 6, 0, 1638495, 6, 0, 1638496, 6, 0, 1769469, 6, 0, 1769470, 6, 0, 1769471, 6, 0, 1703936, 12, 0, 1703937, 21, 0, 1703938, 21, 0, 1703939, 21, 0, 1703940, 21, 0, 1703941, 21, 0, 1703942, 21, 0, 1703943, 21, 0, 1703944, 21, 0, 1703945, 21, 0, 1703946, 21, 0, 1703947, 21, 0, 1703948, 21, 0, 1703949, 21, 0, 1703950, 21, 0, 1703951, 21, 0, 1703952, 15, 0, 1703953, 7, 0, 1703954, 21, 0, 1703955, 21, 0, 1703956, 15, 0, 1703957, 6, 0, 1703958, 6, 0, 1703959, 12, 0, 1703960, 21, 0, 1703961, 21, 0, 1703962, 21, 0, 1703963, 21, 0, 1703964, 21, 0, 1703965, 21, 0, 1703966, 21, 0, 1703967, 21, 0, 1703968, 21, 0, 1703969, 21, 0, 1703970, 21, 0, 1703971, 21, 0, 1703972, 21, 0, 1703973, 21, 0, 1703974, 21, 0, 1703975, 21, 0, 1703976, 21, 0, 1703977, 21, 0, 1703978, 21, 0, 1703979, 21, 0, 1703980, 21, 0, 1703981, 21, 0, 1703982, 21, 0, 1703983, 21, 0, 1703984, 21, 0, 1703985, 21, 0, 1703986, 21, 0, 1703987, 8, 0, 1703988, 18, 0, 1703989, 19, 0, 1703990, 18, 0, 1703991, 18, 0, 1703992, 9, 0, 1703993, 21, 0, 1703994, 21, 0, 1703995, 21, 0, 1703996, 21, 0, 1703997, 21, 0, 1703998, 21, 0, 1703999, 21, 0, 1704000, 21, 0, 1704001, 21, 0, 1704002, 21, 0, 1704003, 21, 0, 1704004, 21, 0, 1704005, 15, 0, 1704006, 6, 0, 1704007, 6, 0, 1704008, 6, 0, 1704009, 0, 0, 1704010, 14, 0, 1704011, 21, 0, 1704012, 21, 0, 1704013, 21, 0, 1704014, 21, 0, 1704015, 21, 0, 1704016, 21, 0, 1704017, 21, 0, 1704018, 21, 0, 1704019, 21, 0, 1704020, 21, 0, 1704021, 21, 0, 1704022, 21, 0, 1704023, 21, 0, 1704024, 21, 0, 1704025, 21, 0, 1704026, 8, 0, 1704027, 20, 0, 1704028, 6, 0, 1704029, 6, 0, 1704030, 16, 0, 1704031, 6, 0, 1704032, 6, 0, 1835005, 6, 0, 1835006, 16, 0, 1835007, 6, 0, 1769472, 12, 0, 1769473, 21, 0, 1769474, 21, 0, 1769475, 21, 0, 1769476, 21, 0, 1769477, 21, 0, 1769478, 21, 0, 1769479, 21, 0, 1769480, 21, 0, 1769481, 21, 0, 1769482, 21, 0, 1769483, 21, 0, 1769484, 21, 0, 1769485, 21, 0, 1769486, 8, 0, 1769487, 18, 0, 1769488, 20, 0, 1769489, 7, 0, 1769490, 21, 0, 1769491, 21, 0, 1769492, 15, 0, 1769493, 6, 0, 1769494, 6, 0, 1769495, 12, 0, 1769496, 21, 0, 1769497, 21, 0, 1769498, 21, 0, 1769499, 21, 0, 1769500, 21, 0, 1769501, 21, 0, 1769502, 21, 0, 1769503, 21, 0, 1769504, 21, 0, 1769505, 21, 0, 1769506, 21, 0, 1769507, 21, 0, 1769508, 21, 0, 1769509, 21, 0, 1769510, 21, 0, 1769511, 21, 0, 1769512, 21, 0, 1769513, 21, 0, 1769514, 21, 0, 1769515, 21, 0, 1769516, 21, 0, 1769517, 21, 0, 1769518, 21, 0, 1769519, 21, 0, 1769520, 21, 0, 1769521, 21, 0, 1769522, 21, 0, 1769523, 15, 0, 1769524, 6, 0, 1769525, 6, 0, 1769526, 6, 0, 1769527, 6, 0, 1769528, 12, 0, 1769529, 21, 0, 1769530, 21, 0, 1769531, 21, 0, 1769532, 21, 0, 1769533, 21, 0, 1769534, 21, 0, 1769535, 21, 0, 1769536, 21, 0, 1769537, 21, 0, 1769538, 21, 0, 1769539, 21, 0, 1769540, 21, 0, 1769541, 15, 0, 1769542, 6, 0, 1769543, 6, 0, 1769544, 6, 0, 1769545, 12, 0, 1769546, 21, 0, 1769547, 21, 0, 1769548, 21, 0, 1769549, 21, 0, 1769550, 21, 0, 1769551, 21, 0, 1769552, 21, 0, 1769553, 21, 0, 1769554, 21, 0, 1769555, 21, 0, 1769556, 21, 0, 1769557, 21, 0, 1769558, 21, 0, 1769559, 21, 0, 1769560, 21, 0, 1769561, 21, 0, 1769562, 15, 0, 1769563, 6, 0, 1769564, 6, 0, 1769565, 6, 0, 1769566, 6, 0, 1769567, 6, 0, 1769568, 6, 0, 1900541, 6, 0, 1900542, 6, 0, 1900543, 6, 0, 1835008, 17, 0, 1835009, 18, 0, 1835010, 19, 0, 1835011, 18, 0, 1835012, 19, 0, 1835013, 18, 0, 1835014, 18, 0, 1835015, 18, 0, 1835016, 18, 0, 1835017, 18, 0, 1835018, 18, 0, 1835019, 9, 0, 1835020, 21, 0, 1835021, 21, 0, 1835022, 15, 0, 1835023, 11, 0, 1835024, 6, 0, 1835025, 7, 0, 1835026, 21, 0, 1835027, 21, 0, 1835028, 15, 0, 1835029, 11, 0, 1835030, 6, 0, 1835031, 12, 0, 1835032, 21, 0, 1835033, 21, 0, 1835034, 21, 0, 1835035, 21, 0, 1835036, 21, 0, 1835037, 21, 0, 1835038, 21, 0, 1835039, 21, 0, 1835040, 21, 0, 1835041, 21, 0, 1835042, 21, 0, 1835043, 21, 0, 1835044, 21, 0, 1835045, 21, 0, 1835046, 21, 0, 1835047, 21, 0, 1835048, 21, 0, 1835049, 21, 0, 1835050, 21, 0, 1835051, 21, 0, 1835052, 21, 0, 1835053, 21, 0, 1835054, 21, 0, 1835055, 21, 0, 1835056, 21, 0, 1835057, 21, 0, 1835058, 21, 0, 1835059, 15, 0, 1835060, 6, 0, 1835061, 6, 0, 1835062, 16, 0, 1835063, 6, 0, 1835064, 17, 0, 1835065, 18, 0, 1835066, 9, 0, 1835067, 21, 0, 1835068, 21, 0, 1835069, 21, 0, 1835070, 21, 0, 1835071, 21, 0, 1835072, 21, 0, 1835073, 21, 0, 1835074, 21, 0, 1835075, 21, 0, 1835076, 21, 0, 1835077, 13, 0, 1835078, 4, 0, 1835079, 6, 0, 1835080, 6, 0, 1835081, 12, 0, 1835082, 21, 0, 1835083, 21, 0, 1835084, 21, 0, 1835085, 21, 0, 1835086, 21, 0, 1835087, 21, 0, 1835088, 21, 0, 1835089, 21, 0, 1835090, 8, 0, 1835091, 18, 0, 1835092, 19, 0, 1835093, 18, 0, 1835094, 9, 0, 1835095, 21, 0, 1835096, 21, 0, 1835097, 21, 0, 1835098, 15, 0, 1835099, 6, 0, 1835100, 6, 0, 1835101, 6, 0, 1835102, 6, 0, 1835103, 6, 0, 1835104, 6, 0, 1966077, 6, 0, 1966078, 6, 0, 1966079, 6, 0, 1900544, 16, 0, 1900545, 6, 0, 1900546, 6, 0, 1900547, 6, 0, 1900548, 11, 0, 1900549, 6, 0, 1900550, 6, 0, 1900551, 6, 0, 1900552, 11, 0, 1900553, 6, 0, 1900554, 6, 0, 1900555, 12, 0, 1900556, 21, 0, 1900557, 21, 0, 1900558, 13, 0, 1900559, 2, 0, 1900560, 2, 0, 1900561, 14, 0, 1900562, 21, 0, 1900563, 21, 0, 1900564, 15, 0, 1900565, 6, 0, 1900566, 6, 0, 1900567, 12, 0, 1900568, 21, 0, 1900569, 21, 0, 1900570, 21, 0, 1900571, 21, 0, 1900572, 21, 0, 1900573, 21, 0, 1900574, 21, 0, 1900575, 21, 0, 1900576, 21, 0, 1900577, 21, 0, 1900578, 21, 0, 1900579, 21, 0, 1900580, 21, 0, 1900581, 21, 0, 1900582, 21, 0, 1900583, 21, 0, 1900584, 21, 0, 1900585, 21, 0, 1900586, 21, 0, 1900587, 21, 0, 1900588, 21, 0, 1900589, 21, 0, 1900590, 21, 0, 1900591, 21, 0, 1900592, 21, 0, 1900593, 21, 0, 1900594, 21, 0, 1900595, 13, 0, 1900596, 4, 0, 1900597, 6, 0, 1900598, 6, 0, 1900599, 6, 0, 1900600, 6, 0, 1900601, 6, 0, 1900602, 17, 0, 1900603, 18, 0, 1900604, 18, 0, 1900605, 18, 0, 1900606, 9, 0, 1900607, 21, 0, 1900608, 21, 0, 1900609, 21, 0, 1900610, 21, 0, 1900611, 21, 0, 1900612, 21, 0, 1900613, 21, 0, 1900614, 15, 0, 1900615, 6, 0, 1900616, 6, 0, 1900617, 12, 0, 1900618, 21, 0, 1900619, 21, 0, 1900620, 21, 0, 1900621, 21, 0, 1900622, 21, 0, 1900623, 21, 0, 1900624, 21, 0, 1900625, 8, 0, 1900626, 20, 0, 1900627, 6, 0, 1900628, 6, 0, 1900629, 6, 0, 1900630, 12, 0, 1900631, 21, 0, 1900632, 21, 0, 1900633, 21, 0, 1900634, 13, 0, 1900635, 4, 0, 1900636, 6, 0, 1900637, 6, 0, 1900638, 6, 0, 1900639, 6, 0, 1900640, 6, 0, 2031613, 6, 0, 2031614, 6, 0, 2031615, 6, 0, 1966080, 6, 0, 1966081, 6, 0, 1966082, 6, 0, 1966083, 1, 0, 1966084, 2, 0, 1966085, 2, 0, 1966086, 2, 0, 1966087, 2, 0, 1966088, 3, 0, 1966089, 2, 0, 1966090, 2, 0, 1966091, 14, 0, 1966092, 21, 0, 1966093, 21, 0, 1966094, 21, 0, 1966095, 21, 0, 1966096, 21, 0, 1966097, 21, 0, 1966098, 21, 0, 1966099, 21, 0, 1966100, 13, 0, 1966101, 2, 0, 1966102, 2, 0, 1966103, 14, 0, 1966104, 21, 0, 1966105, 21, 0, 1966106, 21, 0, 1966107, 21, 0, 1966108, 21, 0, 1966109, 8, 0, 1966110, 19, 0, 1966111, 18, 0, 1966112, 19, 0, 1966113, 9, 0, 1966114, 21, 0, 1966115, 21, 0, 1966116, 21, 0, 1966117, 21, 0, 1966118, 21, 0, 1966119, 21, 0, 1966120, 21, 0, 1966121, 8, 0, 1966122, 18, 0, 1966123, 9, 0, 1966124, 21, 0, 1966125, 21, 0, 1966126, 21, 0, 1966127, 21, 0, 1966128, 21, 0, 1966129, 21, 0, 1966130, 21, 0, 1966131, 21, 0, 1966132, 15, 0, 1966133, 6, 0, 1966134, 6, 0, 1966135, 6, 0, 1966136, 6, 0, 1966137, 6, 0, 1966138, 6, 0, 1966139, 6, 0, 1966140, 6, 0, 1966141, 6, 0, 1966142, 17, 0, 1966143, 9, 0, 1966144, 21, 0, 1966145, 21, 0, 1966146, 21, 0, 1966147, 21, 0, 1966148, 21, 0, 1966149, 21, 0, 1966150, 15, 0, 1966151, 6, 0, 1966152, 0, 0, 1966153, 14, 0, 1966154, 21, 0, 1966155, 21, 0, 1966156, 21, 0, 1966157, 21, 0, 1966158, 21, 0, 1966159, 21, 0, 1966160, 21, 0, 1966161, 15, 0, 1966162, 6, 0, 1966163, 6, 0, 1966164, 6, 0, 1966165, 0, 0, 1966166, 14, 0, 1966167, 21, 0, 1966168, 21, 0, 1966169, 21, 0, 1966170, 21, 0, 1966171, 13, 0, 1966172, 2, 0, 1966173, 4, 0, 1966174, 6, 0, 1966175, 6, 0, 1966176, 6, 0, 2097149, 6, 0, 2097150, 11, 0, 2097151, 6, 0, 2031616, 6, 0, 2031617, 6, 0, 2031618, 1, 0, 2031619, 14, 0, 2031620, 21, 0, 2031621, 21, 0, 2031622, 21, 0, 2031623, 21, 0, 2031624, 21, 0, 2031625, 21, 0, 2031626, 21, 0, 2031627, 21, 0, 2031628, 21, 0, 2031629, 21, 0, 2031630, 21, 0, 2031631, 21, 0, 2031632, 21, 0, 2031633, 21, 0, 2031634, 21, 0, 2031635, 21, 0, 2031636, 21, 0, 2031637, 21, 0, 2031638, 21, 0, 2031639, 21, 0, 2031640, 21, 0, 2031641, 21, 0, 2031642, 21, 0, 2031643, 21, 0, 2031644, 21, 0, 2031645, 15, 0, 2031646, 6, 0, 2031647, 11, 0, 2031648, 6, 0, 2031649, 12, 0, 2031650, 21, 0, 2031651, 21, 0, 2031652, 21, 0, 2031653, 21, 0, 2031654, 21, 0, 2031655, 21, 0, 2031656, 8, 0, 2031657, 20, 0, 2031658, 16, 0, 2031659, 12, 0, 2031660, 21, 0, 2031661, 21, 0, 2031662, 21, 0, 2031663, 21, 0, 2031664, 21, 0, 2031665, 21, 0, 2031666, 21, 0, 2031667, 21, 0, 2031668, 13, 0, 2031669, 2, 0, 2031670, 2, 0, 2031671, 3, 0, 2031672, 3, 0, 2031673, 2, 0, 2031674, 3, 0, 2031675, 4, 0, 2031676, 6, 0, 2031677, 16, 0, 2031678, 6, 0, 2031679, 12, 0, 2031680, 21, 0, 2031681, 21, 0, 2031682, 21, 0, 2031683, 21, 0, 2031684, 21, 0, 2031685, 21, 0, 2031686, 13, 0, 2031687, 3, 0, 2031688, 14, 0, 2031689, 21, 0, 2031690, 21, 0, 2031691, 21, 0, 2031692, 21, 0, 2031693, 21, 0, 2031694, 21, 0, 2031695, 21, 0, 2031696, 21, 0, 2031697, 15, 0, 2031698, 11, 0, 2031699, 6, 0, 2031700, 6, 0, 2031701, 12, 0, 2031702, 21, 0, 2031703, 21, 0, 2031704, 21, 0, 2031705, 21, 0, 2031706, 21, 0, 2031707, 21, 0, 2031708, 21, 0, 2031709, 10, 0, 2031710, 6, 0, 2031711, 6, 0, 2031712, 6, 0, 2162685, 6, 0, 2162686, 6, 0, 2162687, 6, 0, 2097152, 6, 0, 2097153, 0, 0, 2097154, 14, 0, 2097155, 21, 0, 2097156, 21, 0, 2097157, 21, 0, 2097158, 21, 0, 2097159, 21, 0, 2097160, 21, 0, 2097161, 21, 0, 2097162, 21, 0, 2097163, 21, 0, 2097164, 21, 0, 2097165, 21, 0, 2097166, 21, 0, 2097167, 21, 0, 2097168, 21, 0, 2097169, 21, 0, 2097170, 21, 0, 2097171, 21, 0, 2097172, 21, 0, 2097173, 21, 0, 2097174, 21, 0, 2097175, 21, 0, 2097176, 21, 0, 2097177, 21, 0, 2097178, 21, 0, 2097179, 21, 0, 2097180, 21, 0, 2097181, 15, 0, 2097182, 6, 0, 2097183, 6, 0, 2097184, 6, 0, 2097185, 12, 0, 2097186, 21, 0, 2097187, 21, 0, 2097188, 21, 0, 2097189, 21, 0, 2097190, 21, 0, 2097191, 8, 0, 2097192, 20, 0, 2097193, 6, 0, 2097194, 6, 0, 2097195, 12, 0, 2097196, 21, 0, 2097197, 21, 0, 2097198, 21, 0, 2097199, 21, 0, 2097200, 21, 0, 2097201, 21, 0, 2097202, 21, 0, 2097203, 21, 0, 2097204, 21, 0, 2097205, 21, 0, 2097206, 21, 0, 2097207, 21, 0, 2097208, 21, 0, 2097209, 21, 0, 2097210, 21, 0, 2097211, 15, 0, 2097212, 6, 0, 2097213, 6, 0, 2097214, 6, 0, 2097215, 12, 0, 2097216, 21, 0, 2097217, 21, 0, 2097218, 21, 0, 2097219, 21, 0, 2097220, 21, 0, 2097221, 21, 0, 2097222, 21, 0, 2097223, 21, 0, 2097224, 21, 0, 2097225, 21, 0, 2097226, 21, 0, 2097227, 21, 0, 2097228, 21, 0, 2097229, 21, 0, 2097230, 21, 0, 2097231, 21, 0, 2097232, 21, 0, 2097233, 10, 0, 2097234, 6, 0, 2097235, 6, 0, 2097236, 0, 0, 2097237, 14, 0, 2097238, 21, 0, 2097239, 21, 0, 2097240, 21, 0, 2097241, 21, 0, 2097242, 21, 0, 2097243, 21, 0, 2097244, 21, 0, 2097245, 10, 0, 2097246, 6, 0, 2097247, 6, 0, 2097248, 6, 0, 2228221, 6, 0, 2228222, 6, 0, 2228223, 6, 0, 2162688, 6, 0, 2162689, 12, 0, 2162690, 21, 0, 2162691, 21, 0, 2162692, 21, 0, 2162693, 21, 0, 2162694, 8, 0, 2162695, 9, 0, 2162696, 21, 0, 2162697, 21, 0, 2162698, 21, 0, 2162699, 21, 0, 2162700, 21, 0, 2162701, 21, 0, 2162702, 21, 0, 2162703, 21, 0, 2162704, 21, 0, 2162705, 21, 0, 2162706, 21, 0, 2162707, 21, 0, 2162708, 21, 0, 2162709, 21, 0, 2162710, 21, 0, 2162711, 21, 0, 2162712, 21, 0, 2162713, 21, 0, 2162714, 21, 0, 2162715, 21, 0, 2162716, 21, 0, 2162717, 15, 0, 2162718, 6, 0, 2162719, 6, 0, 2162720, 6, 0, 2162721, 12, 0, 2162722, 21, 0, 2162723, 21, 0, 2162724, 21, 0, 2162725, 21, 0, 2162726, 8, 0, 2162727, 20, 0, 2162728, 16, 0, 2162729, 6, 0, 2162730, 0, 0, 2162731, 14, 0, 2162732, 21, 0, 2162733, 21, 0, 2162734, 21, 0, 2162735, 21, 0, 2162736, 21, 0, 2162737, 21, 0, 2162738, 21, 0, 2162739, 21, 0, 2162740, 21, 0, 2162741, 21, 0, 2162742, 21, 0, 2162743, 21, 0, 2162744, 21, 0, 2162745, 21, 0, 2162746, 21, 0, 2162747, 10, 0, 2162748, 6, 0, 2162749, 6, 0, 2162750, 6, 0, 2162751, 12, 0, 2162752, 21, 0, 2162753, 21, 0, 2162754, 21, 0, 2162755, 21, 0, 2162756, 21, 0, 2162757, 21, 0, 2162758, 21, 0, 2162759, 21, 0, 2162760, 21, 0, 2162761, 21, 0, 2162762, 21, 0, 2162763, 21, 0, 2162764, 21, 0, 2162765, 21, 0, 2162766, 21, 0, 2162767, 21, 0, 2162768, 21, 0, 2162769, 15, 0, 2162770, 6, 0, 2162771, 6, 0, 2162772, 12, 0, 2162773, 21, 0, 2162774, 21, 0, 2162775, 21, 0, 2162776, 21, 0, 2162777, 21, 0, 2162778, 21, 0, 2162779, 21, 0, 2162780, 21, 0, 2162781, 10, 0, 2162782, 6, 0, 2162783, 6, 0, 2162784, 6, 0, 2293757, 6, 0, 2293758, 6, 0, 2293759, 6, 0, 2228224, 0, 0, 2228225, 14, 0, 2228226, 21, 0, 2228227, 21, 0, 2228228, 21, 0, 2228229, 21, 0, 2228230, 13, 0, 2228231, 14, 0, 2228232, 21, 0, 2228233, 21, 0, 2228234, 21, 0, 2228235, 21, 0, 2228236, 21, 0, 2228237, 8, 0, 2228238, 18, 0, 2228239, 9, 0, 2228240, 21, 0, 2228241, 21, 0, 2228242, 21, 0, 2228243, 8, 0, 2228244, 19, 0, 2228245, 9, 0, 2228246, 21, 0, 2228247, 21, 0, 2228248, 21, 0, 2228249, 21, 0, 2228250, 21, 0, 2228251, 21, 0, 2228252, 21, 0, 2228253, 15, 0, 2228254, 11, 0, 2228255, 6, 0, 2228256, 6, 0, 2228257, 17, 0, 2228258, 18, 0, 2228259, 18, 0, 2228260, 19, 0, 2228261, 18, 0, 2228262, 20, 0, 2228263, 6, 0, 2228264, 6, 0, 2228265, 0, 0, 2228266, 14, 0, 2228267, 21, 0, 2228268, 21, 0, 2228269, 21, 0, 2228270, 21, 0, 2228271, 21, 0, 2228272, 21, 0, 2228273, 21, 0, 2228274, 21, 0, 2228275, 21, 0, 2228276, 21, 0, 2228277, 21, 0, 2228278, 21, 0, 2228279, 21, 0, 2228280, 21, 0, 2228281, 21, 0, 2228282, 21, 0, 2228283, 15, 0, 2228284, 6, 0, 2228285, 11, 0, 2228286, 6, 0, 2228287, 12, 0, 2228288, 21, 0, 2228289, 21, 0, 2228290, 21, 0, 2228291, 21, 0, 2228292, 21, 0, 2228293, 21, 0, 2228294, 21, 0, 2228295, 21, 0, 2228296, 21, 0, 2228297, 21, 0, 2228298, 21, 0, 2228299, 21, 0, 2228300, 21, 0, 2228301, 21, 0, 2228302, 21, 0, 2228303, 21, 0, 2228304, 21, 0, 2228305, 15, 0, 2228306, 6, 0, 2228307, 6, 0, 2228308, 12, 0, 2228309, 21, 0, 2228310, 21, 0, 2228311, 21, 0, 2228312, 21, 0, 2228313, 21, 0, 2228314, 21, 0, 2228315, 21, 0, 2228316, 21, 0, 2228317, 10, 0, 2228318, 6, 0, 2228319, 6, 0, 2228320, 6, 0, 2359293, 6, 0, 2359294, 6, 0, 2359295, 6, 0, 2293760, 7, 0, 2293761, 21, 0, 2293762, 21, 0, 2293763, 21, 0, 2293764, 21, 0, 2293765, 21, 0, 2293766, 21, 0, 2293767, 21, 0, 2293768, 21, 0, 2293769, 21, 0, 2293770, 21, 0, 2293771, 21, 0, 2293772, 21, 0, 2293773, 15, 0, 2293774, 6, 0, 2293775, 7, 0, 2293776, 21, 0, 2293777, 21, 0, 2293778, 21, 0, 2293779, 15, 0, 2293780, 16, 0, 2293781, 12, 0, 2293782, 21, 0, 2293783, 21, 0, 2293784, 21, 0, 2293785, 21, 0, 2293786, 21, 0, 2293787, 21, 0, 2293788, 21, 0, 2293789, 15, 0, 2293790, 6, 0, 2293791, 6, 0, 2293792, 6, 0, 2293793, 6, 0, 2293794, 16, 0, 2293795, 6, 0, 2293796, 6, 0, 2293797, 6, 0, 2293798, 6, 0, 2293799, 6, 0, 2293800, 0, 0, 2293801, 14, 0, 2293802, 21, 0, 2293803, 21, 0, 2293804, 21, 0, 2293805, 21, 0, 2293806, 21, 0, 2293807, 21, 0, 2293808, 21, 0, 2293809, 21, 0, 2293810, 21, 0, 2293811, 21, 0, 2293812, 21, 0, 2293813, 21, 0, 2293814, 21, 0, 2293815, 21, 0, 2293816, 21, 0, 2293817, 21, 0, 2293818, 21, 0, 2293819, 15, 0, 2293820, 6, 0, 2293821, 6, 0, 2293822, 6, 0, 2293823, 12, 0, 2293824, 21, 0, 2293825, 21, 0, 2293826, 21, 0, 2293827, 21, 0, 2293828, 21, 0, 2293829, 21, 0, 2293830, 21, 0, 2293831, 21, 0, 2293832, 21, 0, 2293833, 21, 0, 2293834, 21, 0, 2293835, 21, 0, 2293836, 21, 0, 2293837, 21, 0, 2293838, 21, 0, 2293839, 21, 0, 2293840, 8, 0, 2293841, 20, 0, 2293842, 6, 0, 2293843, 6, 0, 2293844, 12, 0, 2293845, 21, 0, 2293846, 21, 0, 2293847, 21, 0, 2293848, 21, 0, 2293849, 21, 0, 2293850, 21, 0, 2293851, 21, 0, 2293852, 21, 0, 2293853, 10, 0, 2293854, 6, 0, 2293855, 11, 0, 2293856, 6, 0, 2424829, 16, 0, 2424830, 6, 0, 2424831, 6, 0, 2359296, 12, 0, 2359297, 21, 0, 2359298, 21, 0, 2359299, 21, 0, 2359300, 21, 0, 2359301, 21, 0, 2359302, 21, 0, 2359303, 21, 0, 2359304, 21, 0, 2359305, 21, 0, 2359306, 21, 0, 2359307, 21, 0, 2359308, 21, 0, 2359309, 15, 0, 2359310, 6, 0, 2359311, 7, 0, 2359312, 21, 0, 2359313, 21, 0, 2359314, 21, 0, 2359315, 13, 0, 2359316, 2, 0, 2359317, 14, 0, 2359318, 21, 0, 2359319, 21, 0, 2359320, 21, 0, 2359321, 21, 0, 2359322, 21, 0, 2359323, 21, 0, 2359324, 21, 0, 2359325, 15, 0, 2359326, 6, 0, 2359327, 6, 0, 2359328, 6, 0, 2359329, 0, 0, 2359330, 2, 0, 2359331, 3, 0, 2359332, 2, 0, 2359333, 2, 0, 2359334, 3, 0, 2359335, 3, 0, 2359336, 14, 0, 2359337, 21, 0, 2359338, 21, 0, 2359339, 21, 0, 2359340, 21, 0, 2359341, 21, 0, 2359342, 21, 0, 2359343, 21, 0, 2359344, 8, 0, 2359345, 18, 0, 2359346, 9, 0, 2359347, 21, 0, 2359348, 21, 0, 2359349, 21, 0, 2359350, 21, 0, 2359351, 21, 0, 2359352, 21, 0, 2359353, 21, 0, 2359354, 21, 0, 2359355, 13, 0, 2359356, 4, 0, 2359357, 6, 0, 2359358, 6, 0, 2359359, 12, 0, 2359360, 21, 0, 2359361, 21, 0, 2359362, 21, 0, 2359363, 21, 0, 2359364, 21, 0, 2359365, 21, 0, 2359366, 21, 0, 2359367, 21, 0, 2359368, 21, 0, 2359369, 21, 0, 2359370, 21, 0, 2359371, 21, 0, 2359372, 21, 0, 2359373, 21, 0, 2359374, 21, 0, 2359375, 21, 0, 2359376, 15, 0, 2359377, 6, 0, 2359378, 6, 0, 2359379, 0, 0, 2359380, 14, 0, 2359381, 21, 0, 2359382, 21, 0, 2359383, 21, 0, 2359384, 21, 0, 2359385, 21, 0, 2359386, 21, 0, 2359387, 21, 0, 2359388, 21, 0, 2359389, 10, 0, 2359390, 6, 0, 2359391, 6, 0, 2359392, 6, 0, 2490365, 6, 0, 2490366, 6, 0, 2490367, 6, 0, 2424832, 7, 0, 2424833, 21, 0, 2424834, 21, 0, 2424835, 8, 0, 2424836, 18, 0, 2424837, 18, 0, 2424838, 18, 0, 2424839, 18, 0, 2424840, 19, 0, 2424841, 9, 0, 2424842, 21, 0, 2424843, 21, 0, 2424844, 21, 0, 2424845, 15, 0, 2424846, 6, 0, 2424847, 17, 0, 2424848, 18, 0, 2424849, 9, 0, 2424850, 21, 0, 2424851, 21, 0, 2424852, 21, 0, 2424853, 21, 0, 2424854, 21, 0, 2424855, 21, 0, 2424856, 21, 0, 2424857, 21, 0, 2424858, 21, 0, 2424859, 21, 0, 2424860, 21, 0, 2424861, 15, 0, 2424862, 6, 0, 2424863, 6, 0, 2424864, 16, 0, 2424865, 12, 0, 2424866, 21, 0, 2424867, 21, 0, 2424868, 21, 0, 2424869, 21, 0, 2424870, 21, 0, 2424871, 21, 0, 2424872, 21, 0, 2424873, 21, 0, 2424874, 21, 0, 2424875, 21, 0, 2424876, 21, 0, 2424877, 21, 0, 2424878, 21, 0, 2424879, 8, 0, 2424880, 20, 0, 2424881, 6, 0, 2424882, 17, 0, 2424883, 9, 0, 2424884, 21, 0, 2424885, 21, 0, 2424886, 21, 0, 2424887, 21, 0, 2424888, 21, 0, 2424889, 21, 0, 2424890, 21, 0, 2424891, 21, 0, 2424892, 15, 0, 2424893, 6, 0, 2424894, 6, 0, 2424895, 12, 0, 2424896, 21, 0, 2424897, 21, 0, 2424898, 21, 0, 2424899, 21, 0, 2424900, 21, 0, 2424901, 21, 0, 2424902, 21, 0, 2424903, 21, 0, 2424904, 21, 0, 2424905, 21, 0, 2424906, 21, 0, 2424907, 21, 0, 2424908, 21, 0, 2424909, 21, 0, 2424910, 21, 0, 2424911, 8, 0, 2424912, 20, 0, 2424913, 6, 0, 2424914, 16, 0, 2424915, 12, 0, 2424916, 21, 0, 2424917, 21, 0, 2424918, 21, 0, 2424919, 21, 0, 2424920, 21, 0, 2424921, 21, 0, 2424922, 21, 0, 2424923, 21, 0, 2424924, 21, 0, 2424925, 10, 0, 2424926, 6, 0, 2424927, 6, 0, 2424928, 6, 0, 2555901, 6, 0, 2555902, 6, 0, 2555903, 6, 0, 2490368, 7, 0, 2490369, 21, 0, 2490370, 21, 0, 2490371, 13, 0, 2490372, 3, 0, 2490373, 4, 0, 2490374, 6, 0, 2490375, 6, 0, 2490376, 1, 0, 2490377, 14, 0, 2490378, 21, 0, 2490379, 21, 0, 2490380, 21, 0, 2490381, 15, 0, 2490382, 6, 0, 2490383, 6, 0, 2490384, 6, 0, 2490385, 17, 0, 2490386, 9, 0, 2490387, 21, 0, 2490388, 21, 0, 2490389, 21, 0, 2490390, 21, 0, 2490391, 21, 0, 2490392, 21, 0, 2490393, 21, 0, 2490394, 21, 0, 2490395, 21, 0, 2490396, 21, 0, 2490397, 15, 0, 2490398, 6, 0, 2490399, 6, 0, 2490400, 6, 0, 2490401, 12, 0, 2490402, 21, 0, 2490403, 21, 0, 2490404, 21, 0, 2490405, 21, 0, 2490406, 21, 0, 2490407, 21, 0, 2490408, 21, 0, 2490409, 21, 0, 2490410, 21, 0, 2490411, 21, 0, 2490412, 21, 0, 2490413, 21, 0, 2490414, 8, 0, 2490415, 20, 0, 2490416, 6, 0, 2490417, 6, 0, 2490418, 6, 0, 2490419, 12, 0, 2490420, 21, 0, 2490421, 21, 0, 2490422, 21, 0, 2490423, 21, 0, 2490424, 21, 0, 2490425, 21, 0, 2490426, 21, 0, 2490427, 21, 0, 2490428, 15, 0, 2490429, 6, 0, 2490430, 6, 0, 2490431, 12, 0, 2490432, 21, 0, 2490433, 21, 0, 2490434, 21, 0, 2490435, 21, 0, 2490436, 21, 0, 2490437, 21, 0, 2490438, 21, 0, 2490439, 21, 0, 2490440, 21, 0, 2490441, 21, 0, 2490442, 21, 0, 2490443, 21, 0, 2490444, 21, 0, 2490445, 21, 0, 2490446, 8, 0, 2490447, 20, 0, 2490448, 6, 0, 2490449, 6, 0, 2490450, 6, 0, 2490451, 12, 0, 2490452, 21, 0, 2490453, 21, 0, 2490454, 21, 0, 2490455, 21, 0, 2490456, 21, 0, 2490457, 21, 0, 2490458, 21, 0, 2490459, 21, 0, 2490460, 21, 0, 2490461, 10, 0, 2490462, 6, 0, 2490463, 6, 0, 2490464, 6, 0, 2621437, 6, 0, 2621438, 6, 0, 2621439, 6, 0, 2555904, 7, 0, 2555905, 21, 0, 2555906, 21, 0, 2555907, 21, 0, 2555908, 21, 0, 2555909, 15, 0, 2555910, 16, 0, 2555911, 6, 0, 2555912, 12, 0, 2555913, 21, 0, 2555914, 21, 0, 2555915, 21, 0, 2555916, 21, 0, 2555917, 15, 0, 2555918, 6, 0, 2555919, 6, 0, 2555920, 6, 0, 2555921, 6, 0, 2555922, 17, 0, 2555923, 18, 0, 2555924, 19, 0, 2555925, 19, 0, 2555926, 18, 0, 2555927, 18, 0, 2555928, 9, 0, 2555929, 21, 0, 2555930, 21, 0, 2555931, 21, 0, 2555932, 21, 0, 2555933, 15, 0, 2555934, 11, 0, 2555935, 6, 0, 2555936, 6, 0, 2555937, 12, 0, 2555938, 21, 0, 2555939, 21, 0, 2555940, 21, 0, 2555941, 21, 0, 2555942, 21, 0, 2555943, 21, 0, 2555944, 21, 0, 2555945, 21, 0, 2555946, 21, 0, 2555947, 21, 0, 2555948, 21, 0, 2555949, 21, 0, 2555950, 15, 0, 2555951, 6, 0, 2555952, 6, 0, 2555953, 6, 0, 2555954, 6, 0, 2555955, 12, 0, 2555956, 21, 0, 2555957, 21, 0, 2555958, 21, 0, 2555959, 21, 0, 2555960, 21, 0, 2555961, 21, 0, 2555962, 21, 0, 2555963, 21, 0, 2555964, 15, 0, 2555965, 6, 0, 2555966, 6, 0, 2555967, 12, 0, 2555968, 21, 0, 2555969, 21, 0, 2555970, 21, 0, 2555971, 21, 0, 2555972, 21, 0, 2555973, 21, 0, 2555974, 21, 0, 2555975, 21, 0, 2555976, 21, 0, 2555977, 21, 0, 2555978, 21, 0, 2555979, 21, 0, 2555980, 21, 0, 2555981, 8, 0, 2555982, 20, 0, 2555983, 6, 0, 2555984, 6, 0, 2555985, 6, 0, 2555986, 0, 0, 2555987, 14, 0, 2555988, 21, 0, 2555989, 21, 0, 2555990, 21, 0, 2555991, 21, 0, 2555992, 21, 0, 2555993, 21, 0, 2555994, 21, 0, 2555995, 21, 0, 2555996, 21, 0, 2555997, 10, 0, 2555998, 6, 0, 2555999, 6, 0, 2556000, 6, 0, 2686973, 6, 0, 2686974, 6, 0, 2686975, 6, 0, 2621440, 12, 0, 2621441, 21, 0, 2621442, 21, 0, 2621443, 21, 0, 2621444, 21, 0, 2621445, 15, 0, 2621446, 6, 0, 2621447, 6, 0, 2621448, 12, 0, 2621449, 21, 0, 2621450, 21, 0, 2621451, 21, 0, 2621452, 21, 0, 2621453, 15, 0, 2621454, 6, 0, 2621455, 16, 0, 2621456, 6, 0, 2621457, 6, 0, 2621458, 6, 0, 2621459, 6, 0, 2621460, 6, 0, 2621461, 11, 0, 2621462, 6, 0, 2621463, 6, 0, 2621464, 12, 0, 2621465, 21, 0, 2621466, 21, 0, 2621467, 21, 0, 2621468, 21, 0, 2621469, 13, 0, 2621470, 2, 0, 2621471, 3, 0, 2621472, 2, 0, 2621473, 14, 0, 2621474, 21, 0, 2621475, 21, 0, 2621476, 21, 0, 2621477, 21, 0, 2621478, 21, 0, 2621479, 21, 0, 2621480, 21, 0, 2621481, 21, 0, 2621482, 21, 0, 2621483, 21, 0, 2621484, 21, 0, 2621485, 8, 0, 2621486, 20, 0, 2621487, 6, 0, 2621488, 16, 0, 2621489, 6, 0, 2621490, 6, 0, 2621491, 7, 0, 2621492, 21, 0, 2621493, 21, 0, 2621494, 21, 0, 2621495, 21, 0, 2621496, 21, 0, 2621497, 21, 0, 2621498, 21, 0, 2621499, 21, 0, 2621500, 10, 0, 2621501, 6, 0, 2621502, 6, 0, 2621503, 17, 0, 2621504, 9, 0, 2621505, 21, 0, 2621506, 21, 0, 2621507, 21, 0, 2621508, 21, 0, 2621509, 21, 0, 2621510, 21, 0, 2621511, 21, 0, 2621512, 21, 0, 2621513, 21, 0, 2621514, 21, 0, 2621515, 21, 0, 2621516, 21, 0, 2621517, 15, 0, 2621518, 6, 0, 2621519, 6, 0, 2621520, 6, 0, 2621521, 6, 0, 2621522, 12, 0, 2621523, 21, 0, 2621524, 21, 0, 2621525, 21, 0, 2621526, 21, 0, 2621527, 21, 0, 2621528, 21, 0, 2621529, 21, 0, 2621530, 21, 0, 2621531, 21, 0, 2621532, 8, 0, 2621533, 20, 0, 2621534, 6, 0, 2621535, 6, 0, 2621536, 6, 0, 2752509, 6, 0, 2752510, 6, 0, 2752511, 6, 0, 2686976, 17, 0, 2686977, 9, 0, 2686978, 21, 0, 2686979, 21, 0, 2686980, 21, 0, 2686981, 15, 0, 2686982, 6, 0, 2686983, 6, 0, 2686984, 12, 0, 2686985, 21, 0, 2686986, 21, 0, 2686987, 21, 0, 2686988, 21, 0, 2686989, 13, 0, 2686990, 2, 0, 2686991, 2, 0, 2686992, 3, 0, 2686993, 2, 0, 2686994, 2, 0, 2686995, 3, 0, 2686996, 4, 0, 2686997, 6, 0, 2686998, 6, 0, 2686999, 0, 0, 2687000, 14, 0, 2687001, 21, 0, 2687002, 21, 0, 2687003, 21, 0, 2687004, 21, 0, 2687005, 21, 0, 2687006, 21, 0, 2687007, 21, 0, 2687008, 21, 0, 2687009, 21, 0, 2687010, 21, 0, 2687011, 21, 0, 2687012, 21, 0, 2687013, 21, 0, 2687014, 21, 0, 2687015, 21, 0, 2687016, 21, 0, 2687017, 21, 0, 2687018, 21, 0, 2687019, 21, 0, 2687020, 21, 0, 2687021, 15, 0, 2687022, 6, 0, 2687023, 6, 0, 2687024, 6, 0, 2687025, 6, 0, 2687026, 6, 0, 2687027, 12, 0, 2687028, 21, 0, 2687029, 21, 0, 2687030, 21, 0, 2687031, 21, 0, 2687032, 21, 0, 2687033, 21, 0, 2687034, 21, 0, 2687035, 21, 0, 2687036, 15, 0, 2687037, 6, 0, 2687038, 6, 0, 2687039, 6, 0, 2687040, 17, 0, 2687041, 9, 0, 2687042, 21, 0, 2687043, 21, 0, 2687044, 21, 0, 2687045, 21, 0, 2687046, 21, 0, 2687047, 21, 0, 2687048, 21, 0, 2687049, 21, 0, 2687050, 21, 0, 2687051, 21, 0, 2687052, 21, 0, 2687053, 15, 0, 2687054, 6, 0, 2687055, 16, 0, 2687056, 6, 0, 2687057, 0, 0, 2687058, 14, 0, 2687059, 21, 0, 2687060, 21, 0, 2687061, 21, 0, 2687062, 21, 0, 2687063, 21, 0, 2687064, 21, 0, 2687065, 21, 0, 2687066, 21, 0, 2687067, 21, 0, 2687068, 15, 0, 2687069, 6, 0, 2687070, 6, 0, 2687071, 6, 0, 2687072, 6, 0, 2818045, 6, 0, 2818046, 6, 0, 2818047, 16, 0, 2752512, 6, 0, 2752513, 17, 0, 2752514, 9, 0, 2752515, 21, 0, 2752516, 21, 0, 2752517, 13, 0, 2752518, 4, 0, 2752519, 6, 0, 2752520, 12, 0, 2752521, 21, 0, 2752522, 21, 0, 2752523, 21, 0, 2752524, 21, 0, 2752525, 21, 0, 2752526, 21, 0, 2752527, 21, 0, 2752528, 21, 0, 2752529, 21, 0, 2752530, 21, 0, 2752531, 21, 0, 2752532, 21, 0, 2752533, 4, 0, 2752534, 6, 0, 2752535, 12, 0, 2752536, 21, 0, 2752537, 21, 0, 2752538, 21, 0, 2752539, 21, 0, 2752540, 21, 0, 2752541, 21, 0, 2752542, 21, 0, 2752543, 21, 0, 2752544, 21, 0, 2752545, 21, 0, 2752546, 21, 0, 2752547, 21, 0, 2752548, 21, 0, 2752549, 21, 0, 2752550, 21, 0, 2752551, 21, 0, 2752552, 21, 0, 2752553, 21, 0, 2752554, 21, 0, 2752555, 21, 0, 2752556, 21, 0, 2752557, 15, 0, 2752558, 6, 0, 2752559, 6, 0, 2752560, 6, 0, 2752561, 6, 0, 2752562, 6, 0, 2752563, 7, 0, 2752564, 21, 0, 2752565, 21, 0, 2752566, 21, 0, 2752567, 21, 0, 2752568, 21, 0, 2752569, 21, 0, 2752570, 21, 0, 2752571, 21, 0, 2752572, 15, 0, 2752573, 6, 0, 2752574, 16, 0, 2752575, 6, 0, 2752576, 6, 0, 2752577, 7, 0, 2752578, 21, 0, 2752579, 21, 0, 2752580, 21, 0, 2752581, 21, 0, 2752582, 21, 0, 2752583, 21, 0, 2752584, 21, 0, 2752585, 21, 0, 2752586, 21, 0, 2752587, 21, 0, 2752588, 21, 0, 2752589, 15, 0, 2752590, 6, 0, 2752591, 6, 0, 2752592, 6, 0, 2752593, 12, 0, 2752594, 21, 0, 2752595, 21, 0, 2752596, 21, 0, 2752597, 21, 0, 2752598, 21, 0, 2752599, 21, 0, 2752600, 21, 0, 2752601, 21, 0, 2752602, 21, 0, 2752603, 21, 0, 2752604, 15, 0, 2752605, 6, 0, 2752606, 6, 0, 2752607, 6, 0, 2752608, 6, 0, 2883581, 6, 0, 2883582, 6, 0, 2883583, 6, 0, 2818048, 6, 0, 2818049, 6, 0, 2818050, 17, 0, 2818051, 9, 0, 2818052, 21, 0, 2818053, 21, 0, 2818054, 13, 0, 2818055, 2, 0, 2818056, 14, 0, 2818057, 21, 0, 2818058, 21, 0, 2818059, 21, 0, 2818060, 21, 0, 2818061, 21, 0, 2818062, 21, 0, 2818063, 21, 0, 2818064, 21, 0, 2818065, 21, 0, 2818066, 21, 0, 2818067, 21, 0, 2818068, 21, 0, 2818069, 15, 0, 2818070, 6, 0, 2818071, 12, 0, 2818072, 21, 0, 2818073, 21, 0, 2818074, 21, 0, 2818075, 21, 0, 2818076, 21, 0, 2818077, 21, 0, 2818078, 21, 0, 2818079, 21, 0, 2818080, 21, 0, 2818081, 21, 0, 2818082, 21, 0, 2818083, 21, 0, 2818084, 21, 0, 2818085, 21, 0, 2818086, 21, 0, 2818087, 21, 0, 2818088, 21, 0, 2818089, 21, 0, 2818090, 21, 0, 2818091, 21, 0, 2818092, 21, 0, 2818093, 15, 0, 2818094, 6, 0, 2818095, 6, 0, 2818096, 6, 0, 2818097, 6, 0, 2818098, 6, 0, 2818099, 12, 0, 2818100, 21, 0, 2818101, 21, 0, 2818102, 21, 0, 2818103, 21, 0, 2818104, 21, 0, 2818105, 21, 0, 2818106, 21, 0, 2818107, 21, 0, 2818108, 10, 0, 2818109, 6, 0, 2818110, 6, 0, 2818111, 6, 0, 2818112, 6, 0, 2818113, 17, 0, 2818114, 9, 0, 2818115, 21, 0, 2818116, 21, 0, 2818117, 21, 0, 2818118, 21, 0, 2818119, 21, 0, 2818120, 21, 0, 2818121, 21, 0, 2818122, 21, 0, 2818123, 21, 0, 2818124, 21, 0, 2818125, 15, 0, 2818126, 6, 0, 2818127, 6, 0, 2818128, 0, 0, 2818129, 14, 0, 2818130, 21, 0, 2818131, 21, 0, 2818132, 21, 0, 2818133, 21, 0, 2818134, 21, 0, 2818135, 21, 0, 2818136, 21, 0, 2818137, 21, 0, 2818138, 21, 0, 2818139, 8, 0, 2818140, 20, 0, 2818141, 6, 0, 2818142, 6, 0, 2818143, 6, 0, 2818144, 6, 0, 2949117, 11, 0, 2949118, 6, 0, 2949119, 6, 0, 2883584, 6, 0, 2883585, 6, 0, 2883586, 6, 0, 2883587, 12, 0, 2883588, 21, 0, 2883589, 21, 0, 2883590, 21, 0, 2883591, 21, 0, 2883592, 21, 0, 2883593, 21, 0, 2883594, 21, 0, 2883595, 8, 0, 2883596, 19, 0, 2883597, 18, 0, 2883598, 9, 0, 2883599, 21, 0, 2883600, 21, 0, 2883601, 21, 0, 2883602, 21, 0, 2883603, 21, 0, 2883604, 21, 0, 2883605, 13, 0, 2883606, 2, 0, 2883607, 14, 0, 2883608, 21, 0, 2883609, 21, 0, 2883610, 21, 0, 2883611, 21, 0, 2883612, 8, 0, 2883613, 18, 0, 2883614, 19, 0, 2883615, 9, 0, 2883616, 21, 0, 2883617, 21, 0, 2883618, 21, 0, 2883619, 21, 0, 2883620, 21, 0, 2883621, 21, 0, 2883622, 21, 0, 2883623, 21, 0, 2883624, 21, 0, 2883625, 21, 0, 2883626, 21, 0, 2883627, 21, 0, 2883628, 8, 0, 2883629, 20, 0, 2883630, 6, 0, 2883631, 6, 0, 2883632, 6, 0, 2883633, 6, 0, 2883634, 6, 0, 2883635, 7, 0, 2883636, 21, 0, 2883637, 21, 0, 2883638, 21, 0, 2883639, 21, 0, 2883640, 21, 0, 2883641, 21, 0, 2883642, 21, 0, 2883643, 21, 0, 2883644, 15, 0, 2883645, 6, 0, 2883646, 6, 0, 2883647, 6, 0, 2883648, 6, 0, 2883649, 6, 0, 2883650, 17, 0, 2883651, 18, 0, 2883652, 9, 0, 2883653, 21, 0, 2883654, 21, 0, 2883655, 21, 0, 2883656, 21, 0, 2883657, 21, 0, 2883658, 21, 0, 2883659, 21, 0, 2883660, 21, 0, 2883661, 15, 0, 2883662, 6, 0, 2883663, 6, 0, 2883664, 12, 0, 2883665, 21, 0, 2883666, 21, 0, 2883667, 21, 0, 2883668, 21, 0, 2883669, 21, 0, 2883670, 21, 0, 2883671, 21, 0, 2883672, 21, 0, 2883673, 21, 0, 2883674, 21, 0, 2883675, 15, 0, 2883676, 6, 0, 2883677, 6, 0, 2883678, 6, 0, 2883679, 6, 0, 2883680, 6, 0, 3014653, 6, 0, 3014654, 6, 0, 3014655, 6, 0, 2949120, 6, 0, 2949121, 6, 0, 2949122, 11, 0, 2949123, 17, 0, 2949124, 9, 0, 2949125, 21, 0, 2949126, 21, 0, 2949127, 21, 0, 2949128, 21, 0, 2949129, 21, 0, 2949130, 21, 0, 2949131, 15, 0, 2949132, 6, 0, 2949133, 11, 0, 2949134, 17, 0, 2949135, 9, 0, 2949136, 21, 0, 2949137, 21, 0, 2949138, 21, 0, 2949139, 21, 0, 2949140, 21, 0, 2949141, 21, 0, 2949142, 21, 0, 2949143, 21, 0, 2949144, 21, 0, 2949145, 21, 0, 2949146, 21, 0, 2949147, 8, 0, 2949148, 20, 0, 2949149, 6, 0, 2949150, 6, 0, 2949151, 17, 0, 2949152, 9, 0, 2949153, 21, 0, 2949154, 21, 0, 2949155, 21, 0, 2949156, 21, 0, 2949157, 21, 0, 2949158, 21, 0, 2949159, 21, 0, 2949160, 21, 0, 2949161, 21, 0, 2949162, 21, 0, 2949163, 21, 0, 2949164, 15, 0, 2949165, 6, 0, 2949166, 6, 0, 2949167, 6, 0, 2949168, 11, 0, 2949169, 6, 0, 2949170, 6, 0, 2949171, 17, 0, 2949172, 9, 0, 2949173, 21, 0, 2949174, 21, 0, 2949175, 21, 0, 2949176, 21, 0, 2949177, 21, 0, 2949178, 21, 0, 2949179, 21, 0, 2949180, 13, 0, 2949181, 4, 0, 2949182, 6, 0, 2949183, 6, 0, 2949184, 6, 0, 2949185, 6, 0, 2949186, 6, 0, 2949187, 6, 0, 2949188, 17, 0, 2949189, 9, 0, 2949190, 21, 0, 2949191, 21, 0, 2949192, 21, 0, 2949193, 21, 0, 2949194, 21, 0, 2949195, 21, 0, 2949196, 21, 0, 2949197, 15, 0, 2949198, 6, 0, 2949199, 6, 0, 2949200, 12, 0, 2949201, 21, 0, 2949202, 21, 0, 2949203, 21, 0, 2949204, 21, 0, 2949205, 21, 0, 2949206, 21, 0, 2949207, 21, 0, 2949208, 21, 0, 2949209, 21, 0, 2949210, 21, 0, 2949211, 15, 0, 2949212, 6, 0, 2949213, 6, 0, 2949214, 6, 0, 2949215, 6, 0, 2949216, 6, 0, 3080189, 6, 0, 3080190, 6, 0, 3080191, 6, 0, 3014656, 6, 0, 3014657, 6, 0, 3014658, 6, 0, 3014659, 6, 0, 3014660, 12, 0, 3014661, 21, 0, 3014662, 21, 0, 3014663, 21, 0, 3014664, 21, 0, 3014665, 21, 0, 3014666, 8, 0, 3014667, 20, 0, 3014668, 6, 0, 3014669, 6, 0, 3014670, 6, 0, 3014671, 17, 0, 3014672, 9, 0, 3014673, 21, 0, 3014674, 21, 0, 3014675, 21, 0, 3014676, 21, 0, 3014677, 21, 0, 3014678, 21, 0, 3014679, 21, 0, 3014680, 21, 0, 3014681, 21, 0, 3014682, 8, 0, 3014683, 20, 0, 3014684, 6, 0, 3014685, 6, 0, 3014686, 6, 0, 3014687, 6, 0, 3014688, 17, 0, 3014689, 18, 0, 3014690, 9, 0, 3014691, 21, 0, 3014692, 21, 0, 3014693, 21, 0, 3014694, 21, 0, 3014695, 21, 0, 3014696, 21, 0, 3014697, 21, 0, 3014698, 21, 0, 3014699, 8, 0, 3014700, 20, 0, 3014701, 6, 0, 3014702, 6, 0, 3014703, 6, 0, 3014704, 6, 0, 3014705, 6, 0, 3014706, 6, 0, 3014707, 6, 0, 3014708, 7, 0, 3014709, 21, 0, 3014710, 21, 0, 3014711, 21, 0, 3014712, 21, 0, 3014713, 21, 0, 3014714, 21, 0, 3014715, 21, 0, 3014716, 21, 0, 3014717, 13, 0, 3014718, 3, 0, 3014719, 4, 0, 3014720, 6, 0, 3014721, 6, 0, 3014722, 6, 0, 3014723, 6, 0, 3014724, 6, 0, 3014725, 7, 0, 3014726, 8, 0, 3014727, 19, 0, 3014728, 18, 0, 3014729, 9, 0, 3014730, 21, 0, 3014731, 21, 0, 3014732, 21, 0, 3014733, 15, 0, 3014734, 6, 0, 3014735, 0, 0, 3014736, 14, 0, 3014737, 21, 0, 3014738, 21, 0, 3014739, 21, 0, 3014740, 21, 0, 3014741, 21, 0, 3014742, 21, 0, 3014743, 21, 0, 3014744, 21, 0, 3014745, 21, 0, 3014746, 21, 0, 3014747, 15, 0, 3014748, 6, 0, 3014749, 16, 0, 3014750, 6, 0, 3014751, 6, 0, 3014752, 6, 0, 3145725, 6, 0, 3145726, 16, 0, 3145727, 6, 0, 3080192, 6, 0, 3080193, 6, 0, 3080194, 0, 0, 3080195, 3, 0, 3080196, 14, 0, 3080197, 21, 0, 3080198, 21, 0, 3080199, 21, 0, 3080200, 21, 0, 3080201, 21, 0, 3080202, 15, 0, 3080203, 6, 0, 3080204, 6, 0, 3080205, 6, 0, 3080206, 6, 0, 3080207, 6, 0, 3080208, 17, 0, 3080209, 9, 0, 3080210, 21, 0, 3080211, 21, 0, 3080212, 21, 0, 3080213, 21, 0, 3080214, 21, 0, 3080215, 21, 0, 3080216, 21, 0, 3080217, 8, 0, 3080218, 20, 0, 3080219, 6, 0, 3080220, 6, 0, 3080221, 6, 0, 3080222, 6, 0, 3080223, 6, 0, 3080224, 6, 0, 3080225, 6, 0, 3080226, 17, 0, 3080227, 9, 0, 3080228, 21, 0, 3080229, 21, 0, 3080230, 21, 0, 3080231, 21, 0, 3080232, 21, 0, 3080233, 21, 0, 3080234, 21, 0, 3080235, 15, 0, 3080236, 6, 0, 3080237, 6, 0, 3080238, 6, 0, 3080239, 6, 0, 3080240, 6, 0, 3080241, 6, 0, 3080242, 6, 0, 3080243, 6, 0, 3080244, 7, 0, 3080245, 21, 0, 3080246, 21, 0, 3080247, 21, 0, 3080248, 21, 0, 3080249, 21, 0, 3080250, 21, 0, 3080251, 21, 0, 3080252, 21, 0, 3080253, 21, 0, 3080254, 21, 0, 3080255, 13, 0, 3080256, 3, 0, 3080257, 4, 0, 3080258, 6, 0, 3080259, 6, 0, 3080260, 6, 0, 3080261, 17, 0, 3080262, 20, 0, 3080263, 6, 0, 3080264, 6, 0, 3080265, 17, 0, 3080266, 18, 0, 3080267, 18, 0, 3080268, 18, 0, 3080269, 20, 0, 3080270, 6, 0, 3080271, 12, 0, 3080272, 21, 0, 3080273, 21, 0, 3080274, 21, 0, 3080275, 21, 0, 3080276, 21, 0, 3080277, 21, 0, 3080278, 21, 0, 3080279, 21, 0, 3080280, 21, 0, 3080281, 21, 0, 3080282, 21, 0, 3080283, 15, 0, 3080284, 6, 0, 3080285, 6, 0, 3080286, 6, 0, 3080287, 6, 0, 3080288, 6, 0, 3211261, 6, 0, 3211262, 6, 0, 3211263, 6, 0, 3145728, 6, 0, 3145729, 0, 0, 3145730, 21, 0, 3145731, 21, 0, 3145732, 21, 0, 3145733, 21, 0, 3145734, 8, 0, 3145735, 18, 0, 3145736, 18, 0, 3145737, 18, 0, 3145738, 20, 0, 3145739, 6, 0, 3145740, 11, 0, 3145741, 6, 0, 3145742, 6, 0, 3145743, 6, 0, 3145744, 6, 0, 3145745, 17, 0, 3145746, 18, 0, 3145747, 18, 0, 3145748, 18, 0, 3145749, 18, 0, 3145750, 18, 0, 3145751, 19, 0, 3145752, 18, 0, 3145753, 20, 0, 3145754, 6, 0, 3145755, 6, 0, 3145756, 6, 0, 3145757, 6, 0, 3145758, 6, 0, 3145759, 6, 0, 3145760, 6, 0, 3145761, 16, 0, 3145762, 6, 0, 3145763, 12, 0, 3145764, 21, 0, 3145765, 21, 0, 3145766, 21, 0, 3145767, 21, 0, 3145768, 21, 0, 3145769, 21, 0, 3145770, 8, 0, 3145771, 20, 0, 3145772, 6, 0, 3145773, 6, 0, 3145774, 6, 0, 3145775, 6, 0, 3145776, 6, 0, 3145777, 6, 0, 3145778, 6, 0, 3145779, 6, 0, 3145780, 7, 0, 3145781, 21, 0, 3145782, 21, 0, 3145783, 21, 0, 3145784, 21, 0, 3145785, 21, 0, 3145786, 21, 0, 3145787, 21, 0, 3145788, 21, 0, 3145789, 21, 0, 3145790, 21, 0, 3145791, 21, 0, 3145792, 21, 0, 3145793, 15, 0, 3145794, 6, 0, 3145795, 6, 0, 3145796, 6, 0, 3145797, 6, 0, 3145798, 6, 0, 3145799, 6, 0, 3145800, 6, 0, 3145801, 6, 0, 3145802, 6, 0, 3145803, 6, 0, 3145804, 6, 0, 3145805, 6, 0, 3145806, 6, 0, 3145807, 12, 0, 3145808, 21, 0, 3145809, 21, 0, 3145810, 21, 0, 3145811, 21, 0, 3145812, 21, 0, 3145813, 21, 0, 3145814, 21, 0, 3145815, 21, 0, 3145816, 21, 0, 3145817, 21, 0, 3145818, 21, 0, 3145819, 15, 0, 3145820, 6, 0, 3145821, 6, 0, 3145822, 6, 0, 3145823, 6, 0, 3145824, 11, 0, 3276797, 6, 0, 3276798, 6, 0, 3276799, 6, 0, 3211264, 0, 0, 3211265, 21, 0, 3211266, 21, 0, 3211267, 21, 0, 3211268, 21, 0, 3211269, 21, 0, 3211270, 15, 0, 3211271, 6, 0, 3211272, 6, 0, 3211273, 16, 0, 3211274, 6, 0, 3211275, 6, 0, 3211276, 6, 0, 3211277, 6, 0, 3211278, 6, 0, 3211279, 11, 0, 3211280, 6, 0, 3211281, 6, 0, 3211282, 11, 0, 3211283, 6, 0, 3211284, 6, 0, 3211285, 6, 0, 3211286, 6, 0, 3211287, 6, 0, 3211288, 6, 0, 3211289, 6, 0, 3211290, 6, 0, 3211291, 6, 0, 3211292, 6, 0, 3211293, 6, 0, 3211294, 6, 0, 3211295, 6, 0, 3211296, 6, 0, 3211297, 6, 0, 3211298, 6, 0, 3211299, 12, 0, 3211300, 21, 0, 3211301, 21, 0, 3211302, 21, 0, 3211303, 21, 0, 3211304, 21, 0, 3211305, 21, 0, 3211306, 15, 0, 3211307, 6, 0, 3211308, 6, 0, 3211309, 6, 0, 3211310, 16, 0, 3211311, 6, 0, 3211312, 6, 0, 3211313, 6, 0, 3211314, 6, 0, 3211315, 6, 0, 3211316, 7, 0, 3211317, 21, 0, 3211318, 21, 0, 3211319, 21, 0, 3211320, 21, 0, 3211321, 21, 0, 3211322, 21, 0, 3211323, 21, 0, 3211324, 21, 0, 3211325, 21, 0, 3211326, 21, 0, 3211327, 21, 0, 3211328, 21, 0, 3211329, 13, 0, 3211330, 4, 0, 3211331, 6, 0, 3211332, 6, 0, 3211333, 16, 0, 3211334, 6, 0, 3211335, 6, 0, 3211336, 11, 0, 3211337, 6, 0, 3211338, 6, 0, 3211339, 6, 0, 3211340, 6, 0, 3211341, 6, 0, 3211342, 6, 0, 3211343, 12, 0, 3211344, 21, 0, 3211345, 21, 0, 3211346, 21, 0, 3211347, 21, 0, 3211348, 21, 0, 3211349, 21, 0, 3211350, 21, 0, 3211351, 21, 0, 3211352, 21, 0, 3211353, 21, 0, 3211354, 21, 0, 3211355, 15, 0, 3211356, 6, 0, 3211357, 6, 0, 3211358, 6, 0, 3211359, 6, 0, 3211360, 6, 0, 3342333, 6, 0, 3342334, 6, 0, 3342335, 6, 0, 3276800, 7, 0, 3276801, 21, 0, 3276802, 21, 0, 3276803, 21, 0, 3276804, 21, 0, 3276805, 21, 0, 3276806, 13, 0, 3276807, 2, 0, 3276808, 3, 0, 3276809, 2, 0, 3276810, 2, 0, 3276811, 2, 0, 3276812, 2, 0, 3276813, 2, 0, 3276814, 4, 0, 3276815, 6, 0, 3276816, 6, 0, 3276817, 6, 0, 3276818, 6, 0, 3276819, 6, 0, 3276820, 1, 0, 3276821, 2, 0, 3276822, 2, 0, 3276823, 2, 0, 3276824, 2, 0, 3276825, 3, 0, 3276826, 2, 0, 3276827, 2, 0, 3276828, 3, 0, 3276829, 4, 0, 3276830, 6, 0, 3276831, 16, 0, 3276832, 6, 0, 3276833, 6, 0, 3276834, 0, 0, 3276835, 14, 0, 3276836, 21, 0, 3276837, 21, 0, 3276838, 21, 0, 3276839, 21, 0, 3276840, 21, 0, 3276841, 8, 0, 3276842, 20, 0, 3276843, 6, 0, 3276844, 6, 0, 3276845, 6, 0, 3276846, 6, 0, 3276847, 6, 0, 3276848, 6, 0, 3276849, 6, 0, 3276850, 6, 0, 3276851, 6, 0, 3276852, 17, 0, 3276853, 9, 0, 3276854, 21, 0, 3276855, 21, 0, 3276856, 21, 0, 3276857, 21, 0, 3276858, 21, 0, 3276859, 21, 0, 3276860, 21, 0, 3276861, 21, 0, 3276862, 21, 0, 3276863, 21, 0, 3276864, 21, 0, 3276865, 21, 0, 3276866, 10, 0, 3276867, 11, 0, 3276868, 6, 0, 3276869, 6, 0, 3276870, 6, 0, 3276871, 6, 0, 3276872, 6, 0, 3276873, 6, 0, 3276874, 6, 0, 3276875, 6, 0, 3276876, 11, 0, 3276877, 6, 0, 3276878, 0, 0, 3276879, 14, 0, 3276880, 21, 0, 3276881, 21, 0, 3276882, 21, 0, 3276883, 21, 0, 3276884, 21, 0, 3276885, 21, 0, 3276886, 21, 0, 3276887, 21, 0, 3276888, 21, 0, 3276889, 21, 0, 3276890, 21, 0, 3276891, 15, 0, 3276892, 6, 0, 3276893, 6, 0, 3276894, 6, 0, 3276895, 6, 0, 3276896, 6, 0, 3407869, 6, 0, 3407870, 6, 0, 3407871, 11, 0, 3342336, 12, 0, 3342337, 21, 0, 3342338, 21, 0, 3342339, 21, 0, 3342340, 21, 0, 3342341, 21, 0, 3342342, 21, 0, 3342343, 21, 0, 3342344, 21, 0, 3342345, 21, 0, 3342346, 21, 0, 3342347, 21, 0, 3342348, 21, 0, 3342349, 21, 0, 3342350, 15, 0, 3342351, 6, 0, 3342352, 6, 0, 3342353, 6, 0, 3342354, 6, 0, 3342355, 6, 0, 3342356, 7, 0, 3342357, 21, 0, 3342358, 21, 0, 3342359, 21, 0, 3342360, 21, 0, 3342361, 21, 0, 3342362, 21, 0, 3342363, 21, 0, 3342364, 21, 0, 3342365, 15, 0, 3342366, 6, 0, 3342367, 6, 0, 3342368, 6, 0, 3342369, 6, 0, 3342370, 12, 0, 3342371, 21, 0, 3342372, 21, 0, 3342373, 21, 0, 3342374, 21, 0, 3342375, 21, 0, 3342376, 21, 0, 3342377, 15, 0, 3342378, 6, 0, 3342379, 6, 0, 3342380, 6, 0, 3342381, 6, 0, 3342382, 6, 0, 3342383, 6, 0, 3342384, 6, 0, 3342385, 6, 0, 3342386, 6, 0, 3342387, 6, 0, 3342388, 6, 0, 3342389, 7, 0, 3342390, 21, 0, 3342391, 21, 0, 3342392, 21, 0, 3342393, 21, 0, 3342394, 21, 0, 3342395, 21, 0, 3342396, 21, 0, 3342397, 21, 0, 3342398, 21, 0, 3342399, 21, 0, 3342400, 21, 0, 3342401, 21, 0, 3342402, 15, 0, 3342403, 6, 0, 3342404, 6, 0, 3342405, 6, 0, 3342406, 6, 0, 3342407, 6, 0, 3342408, 0, 0, 3342409, 2, 0, 3342410, 2, 0, 3342411, 2, 0, 3342412, 3, 0, 3342413, 2, 0, 3342414, 14, 0, 3342415, 21, 0, 3342416, 21, 0, 3342417, 21, 0, 3342418, 21, 0, 3342419, 21, 0, 3342420, 21, 0, 3342421, 21, 0, 3342422, 21, 0, 3342423, 21, 0, 3342424, 21, 0, 3342425, 21, 0, 3342426, 8, 0, 3342427, 20, 0, 3342428, 6, 0, 3342429, 6, 0, 3342430, 6, 0, 3342431, 6, 0, 3342432, 6, 0, 3473405, 6, 0, 3473406, 6, 0, 3473407, 6, 0, 3407872, 12, 0, 3407873, 21, 0, 3407874, 21, 0, 3407875, 21, 0, 3407876, 21, 0, 3407877, 21, 0, 3407878, 21, 0, 3407879, 21, 0, 3407880, 21, 0, 3407881, 21, 0, 3407882, 21, 0, 3407883, 21, 0, 3407884, 21, 0, 3407885, 21, 0, 3407886, 13, 0, 3407887, 3, 0, 3407888, 4, 0, 3407889, 6, 0, 3407890, 11, 0, 3407891, 0, 0, 3407892, 14, 0, 3407893, 21, 0, 3407894, 21, 0, 3407895, 21, 0, 3407896, 21, 0, 3407897, 21, 0, 3407898, 21, 0, 3407899, 21, 0, 3407900, 21, 0, 3407901, 13, 0, 3407902, 2, 0, 3407903, 4, 0, 3407904, 6, 0, 3407905, 6, 0, 3407906, 12, 0, 3407907, 21, 0, 3407908, 21, 0, 3407909, 21, 0, 3407910, 21, 0, 3407911, 21, 0, 3407912, 21, 0, 3407913, 15, 0, 3407914, 6, 0, 3407915, 6, 0, 3407916, 6, 0, 3407917, 6, 0, 3407918, 6, 0, 3407919, 6, 0, 3407920, 6, 0, 3407921, 6, 0, 3407922, 6, 0, 3407923, 6, 0, 3407924, 6, 0, 3407925, 17, 0, 3407926, 9, 0, 3407927, 21, 0, 3407928, 21, 0, 3407929, 21, 0, 3407930, 21, 0, 3407931, 21, 0, 3407932, 21, 0, 3407933, 21, 0, 3407934, 21, 0, 3407935, 21, 0, 3407936, 21, 0, 3407937, 21, 0, 3407938, 13, 0, 3407939, 2, 0, 3407940, 2, 0, 3407941, 3, 0, 3407942, 2, 0, 3407943, 3, 0, 3407944, 14, 0, 3407945, 21, 0, 3407946, 21, 0, 3407947, 21, 0, 3407948, 21, 0, 3407949, 21, 0, 3407950, 21, 0, 3407951, 21, 0, 3407952, 21, 0, 3407953, 21, 0, 3407954, 21, 0, 3407955, 21, 0, 3407956, 21, 0, 3407957, 21, 0, 3407958, 21, 0, 3407959, 21, 0, 3407960, 21, 0, 3407961, 21, 0, 3407962, 15, 0, 3407963, 6, 0, 3407964, 6, 0, 3407965, 16, 0, 3407966, 6, 0, 3407967, 6, 0, 3407968, 6, 0, 3538941, 6, 0, 3538942, 6, 0, 3538943, 6, 0, 3473408, 12, 0, 3473409, 21, 0, 3473410, 21, 0, 3473411, 21, 0, 3473412, 21, 0, 3473413, 21, 0, 3473414, 21, 0, 3473415, 21, 0, 3473416, 21, 0, 3473417, 21, 0, 3473418, 21, 0, 3473419, 21, 0, 3473420, 21, 0, 3473421, 21, 0, 3473422, 21, 0, 3473423, 21, 0, 3473424, 13, 0, 3473425, 4, 0, 3473426, 6, 0, 3473427, 12, 0, 3473428, 21, 0, 3473429, 21, 0, 3473430, 21, 0, 3473431, 21, 0, 3473432, 21, 0, 3473433, 21, 0, 3473434, 21, 0, 3473435, 21, 0, 3473436, 21, 0, 3473437, 21, 0, 3473438, 21, 0, 3473439, 13, 0, 3473440, 4, 0, 3473441, 6, 0, 3473442, 12, 0, 3473443, 21, 0, 3473444, 21, 0, 3473445, 21, 0, 3473446, 21, 0, 3473447, 21, 0, 3473448, 21, 0, 3473449, 15, 0, 3473450, 6, 0, 3473451, 6, 0, 3473452, 6, 0, 3473453, 6, 0, 3473454, 6, 0, 3473455, 6, 0, 3473456, 6, 0, 3473457, 6, 0, 3473458, 6, 0, 3473459, 6, 0, 3473460, 6, 0, 3473461, 6, 0, 3473462, 7, 0, 3473463, 21, 0, 3473464, 21, 0, 3473465, 21, 0, 3473466, 21, 0, 3473467, 21, 0, 3473468, 8, 0, 3473469, 19, 0, 3473470, 9, 0, 3473471, 21, 0, 3473472, 21, 0, 3473473, 21, 0, 3473474, 21, 0, 3473475, 21, 0, 3473476, 21, 0, 3473477, 21, 0, 3473478, 21, 0, 3473479, 21, 0, 3473480, 21, 0, 3473481, 21, 0, 3473482, 21, 0, 3473483, 21, 0, 3473484, 21, 0, 3473485, 21, 0, 3473486, 21, 0, 3473487, 21, 0, 3473488, 21, 0, 3473489, 21, 0, 3473490, 21, 0, 3473491, 21, 0, 3473492, 21, 0, 3473493, 21, 0, 3473494, 21, 0, 3473495, 21, 0, 3473496, 21, 0, 3473497, 8, 0, 3473498, 20, 0, 3473499, 6, 0, 3473500, 6, 0, 3473501, 6, 0, 3473502, 6, 0, 3473503, 6, 0, 3473504, 6, 0, 3604477, 6, 0, 3604478, 6, 0, 3604479, 6, 0, 3538944, 17, 0, 3538945, 9, 0, 3538946, 21, 0, 3538947, 21, 0, 3538948, 21, 0, 3538949, 21, 0, 3538950, 21, 0, 3538951, 21, 0, 3538952, 21, 0, 3538953, 21, 0, 3538954, 21, 0, 3538955, 21, 0, 3538956, 21, 0, 3538957, 21, 0, 3538958, 21, 0, 3538959, 21, 0, 3538960, 21, 0, 3538961, 13, 0, 3538962, 2, 0, 3538963, 14, 0, 3538964, 21, 0, 3538965, 21, 0, 3538966, 21, 0, 3538967, 21, 0, 3538968, 21, 0, 3538969, 21, 0, 3538970, 21, 0, 3538971, 21, 0, 3538972, 21, 0, 3538973, 21, 0, 3538974, 21, 0, 3538975, 21, 0, 3538976, 13, 0, 3538977, 2, 0, 3538978, 14, 0, 3538979, 21, 0, 3538980, 21, 0, 3538981, 21, 0, 3538982, 21, 0, 3538983, 21, 0, 3538984, 8, 0, 3538985, 20, 0, 3538986, 6, 0, 3538987, 6, 0, 3538988, 6, 0, 3538989, 6, 0, 3538990, 6, 0, 3538991, 6, 0, 3538992, 6, 0, 3538993, 6, 0, 3538994, 6, 0, 3538995, 6, 0, 3538996, 6, 0, 3538997, 6, 0, 3538998, 17, 0, 3538999, 9, 0, 3539000, 21, 0, 3539001, 21, 0, 3539002, 21, 0, 3539003, 21, 0, 3539004, 15, 0, 3539005, 6, 0, 3539006, 17, 0, 3539007, 9, 0, 3539008, 21, 0, 3539009, 21, 0, 3539010, 21, 0, 3539011, 21, 0, 3539012, 21, 0, 3539013, 21, 0, 3539014, 21, 0, 3539015, 21, 0, 3539016, 21, 0, 3539017, 21, 0, 3539018, 21, 0, 3539019, 21, 0, 3539020, 21, 0, 3539021, 21, 0, 3539022, 21, 0, 3539023, 21, 0, 3539024, 21, 0, 3539025, 21, 0, 3539026, 21, 0, 3539027, 21, 0, 3539028, 21, 0, 3539029, 21, 0, 3539030, 21, 0, 3539031, 21, 0, 3539032, 21, 0, 3539033, 15, 0, 3539034, 6, 0, 3539035, 6, 0, 3539036, 6, 0, 3539037, 6, 0, 3539038, 6, 0, 3539039, 6, 0, 3539040, 6, 0, 3670013, 6, 0, 3670014, 11, 0, 3670015, 6, 0, 3604480, 6, 0, 3604481, 17, 0, 3604482, 18, 0, 3604483, 18, 0, 3604484, 9, 0, 3604485, 21, 0, 3604486, 21, 0, 3604487, 21, 0, 3604488, 21, 0, 3604489, 21, 0, 3604490, 21, 0, 3604491, 21, 0, 3604492, 21, 0, 3604493, 21, 0, 3604494, 21, 0, 3604495, 21, 0, 3604496, 21, 0, 3604497, 21, 0, 3604498, 21, 0, 3604499, 21, 0, 3604500, 21, 0, 3604501, 21, 0, 3604502, 21, 0, 3604503, 21, 0, 3604504, 21, 0, 3604505, 21, 0, 3604506, 21, 0, 3604507, 21, 0, 3604508, 21, 0, 3604509, 21, 0, 3604510, 21, 0, 3604511, 21, 0, 3604512, 21, 0, 3604513, 21, 0, 3604514, 21, 0, 3604515, 21, 0, 3604516, 21, 0, 3604517, 21, 0, 3604518, 21, 0, 3604519, 8, 0, 3604520, 20, 0, 3604521, 6, 0, 3604522, 6, 0, 3604523, 6, 0, 3604524, 6, 0, 3604525, 6, 0, 3604526, 6, 0, 3604527, 11, 0, 3604528, 6, 0, 3604529, 6, 0, 3604530, 6, 0, 3604531, 6, 0, 3604532, 6, 0, 3604533, 6, 0, 3604534, 6, 0, 3604535, 17, 0, 3604536, 9, 0, 3604537, 21, 0, 3604538, 21, 0, 3604539, 8, 0, 3604540, 20, 0, 3604541, 6, 0, 3604542, 6, 0, 3604543, 7, 0, 3604544, 21, 0, 3604545, 21, 0, 3604546, 21, 0, 3604547, 21, 0, 3604548, 21, 0, 3604549, 21, 0, 3604550, 21, 0, 3604551, 21, 0, 3604552, 21, 0, 3604553, 21, 0, 3604554, 21, 0, 3604555, 21, 0, 3604556, 21, 0, 3604557, 21, 0, 3604558, 21, 0, 3604559, 21, 0, 3604560, 21, 0, 3604561, 8, 0, 3604562, 18, 0, 3604563, 18, 0, 3604564, 18, 0, 3604565, 18, 0, 3604566, 18, 0, 3604567, 18, 0, 3604568, 18, 0, 3604569, 20, 0, 3604570, 6, 0, 3604571, 6, 0, 3604572, 6, 0, 3604573, 6, 0, 3604574, 6, 0, 3604575, 11, 0, 3604576, 6, 0, 3735549, 6, 0, 3735550, 6, 0, 3735551, 6, 0, 3670016, 6, 0, 3670017, 6, 0, 3670018, 6, 0, 3670019, 6, 0, 3670020, 17, 0, 3670021, 19, 0, 3670022, 18, 0, 3670023, 19, 0, 3670024, 18, 0, 3670025, 18, 0, 3670026, 9, 0, 3670027, 21, 0, 3670028, 21, 0, 3670029, 21, 0, 3670030, 21, 0, 3670031, 21, 0, 3670032, 21, 0, 3670033, 21, 0, 3670034, 21, 0, 3670035, 21, 0, 3670036, 21, 0, 3670037, 21, 0, 3670038, 21, 0, 3670039, 21, 0, 3670040, 21, 0, 3670041, 21, 0, 3670042, 21, 0, 3670043, 21, 0, 3670044, 21, 0, 3670045, 21, 0, 3670046, 21, 0, 3670047, 21, 0, 3670048, 21, 0, 3670049, 21, 0, 3670050, 21, 0, 3670051, 21, 0, 3670052, 21, 0, 3670053, 8, 0, 3670054, 19, 0, 3670055, 20, 0, 3670056, 6, 0, 3670057, 6, 0, 3670058, 6, 0, 3670059, 16, 0, 3670060, 6, 0, 3670061, 6, 0, 3670062, 6, 0, 3670063, 6, 0, 3670064, 6, 0, 3670065, 6, 0, 3670066, 6, 0, 3670067, 6, 0, 3670068, 16, 0, 3670069, 6, 0, 3670070, 6, 0, 3670071, 6, 0, 3670072, 7, 0, 3670073, 21, 0, 3670074, 8, 0, 3670075, 20, 0, 3670076, 6, 0, 3670077, 11, 0, 3670078, 6, 0, 3670079, 17, 0, 3670080, 18, 0, 3670081, 18, 0, 3670082, 9, 0, 3670083, 21, 0, 3670084, 21, 0, 3670085, 21, 0, 3670086, 21, 0, 3670087, 21, 0, 3670088, 21, 0, 3670089, 21, 0, 3670090, 21, 0, 3670091, 21, 0, 3670092, 21, 0, 3670093, 21, 0, 3670094, 21, 0, 3670095, 8, 0, 3670096, 18, 0, 3670097, 20, 0, 3670098, 6, 0, 3670099, 6, 0, 3670100, 6, 0, 3670101, 6, 0, 3670102, 6, 0, 3670103, 6, 0, 3670104, 6, 0, 3670105, 6, 0, 3670106, 6, 0, 3670107, 6, 0, 3670108, 6, 0, 3670109, 6, 0, 3670110, 6, 0, 3670111, 6, 0, 3670112, 6, 0, 3801085, 6, 0, 3801086, 6, 0, 3801087, 6, 0, 3735552, 6, 0, 3735553, 6, 0, 3735554, 6, 0, 3735555, 6, 0, 3735556, 6, 0, 3735557, 6, 0, 3735558, 6, 0, 3735559, 16, 0, 3735560, 6, 0, 3735561, 6, 0, 3735562, 17, 0, 3735563, 9, 0, 3735564, 21, 0, 3735565, 21, 0, 3735566, 21, 0, 3735567, 21, 0, 3735568, 21, 0, 3735569, 21, 0, 3735570, 21, 0, 3735571, 21, 0, 3735572, 21, 0, 3735573, 21, 0, 3735574, 21, 0, 3735575, 21, 0, 3735576, 21, 0, 3735577, 21, 0, 3735578, 21, 0, 3735579, 21, 0, 3735580, 21, 0, 3735581, 21, 0, 3735582, 21, 0, 3735583, 21, 0, 3735584, 21, 0, 3735585, 21, 0, 3735586, 21, 0, 3735587, 8, 0, 3735588, 19, 0, 3735589, 20, 0, 3735590, 6, 0, 3735591, 6, 0, 3735592, 6, 0, 3735593, 6, 0, 3735594, 6, 0, 3735595, 6, 0, 3735596, 6, 0, 3735597, 6, 0, 3735598, 6, 0, 3735599, 6, 0, 3735600, 6, 0, 3735601, 6, 0, 3735602, 6, 0, 3735603, 6, 0, 3735604, 6, 0, 3735605, 6, 0, 3735606, 6, 0, 3735607, 6, 0, 3735608, 17, 0, 3735609, 18, 0, 3735610, 20, 0, 3735611, 6, 0, 3735612, 6, 0, 3735613, 6, 0, 3735614, 6, 0, 3735615, 6, 0, 3735616, 6, 0, 3735617, 6, 0, 3735618, 17, 0, 3735619, 18, 0, 3735620, 9, 0, 3735621, 21, 0, 3735622, 21, 0, 3735623, 21, 0, 3735624, 21, 0, 3735625, 21, 0, 3735626, 21, 0, 3735627, 21, 0, 3735628, 21, 0, 3735629, 21, 0, 3735630, 21, 0, 3735631, 15, 0, 3735632, 6, 0, 3735633, 6, 0, 3735634, 6, 0, 3735635, 6, 0, 3735636, 16, 0, 3735637, 6, 0, 3735638, 6, 0, 3735639, 6, 0, 3735640, 6, 0, 3735641, 6, 0, 3735642, 6, 0, 3735643, 6, 0, 3735644, 16, 0, 3735645, 6, 0, 3735646, 6, 0, 3735647, 6, 0, 3735648, 6, 0, 3866621, 6, 0, 3866622, 6, 0, 3866623, 6, 0, 3801088, 6, 0, 3801089, 16, 0, 3801090, 6, 0, 3801091, 6, 0, 3801092, 6, 0, 3801093, 6, 0, 3801094, 6, 0, 3801095, 6, 0, 3801096, 6, 0, 3801097, 6, 0, 3801098, 6, 0, 3801099, 17, 0, 3801100, 18, 0, 3801101, 18, 0, 3801102, 18, 0, 3801103, 18, 0, 3801104, 18, 0, 3801105, 19, 0, 3801106, 18, 0, 3801107, 19, 0, 3801108, 18, 0, 3801109, 18, 0, 3801110, 18, 0, 3801111, 18, 0, 3801112, 18, 0, 3801113, 19, 0, 3801114, 18, 0, 3801115, 18, 0, 3801116, 18, 0, 3801117, 19, 0, 3801118, 19, 0, 3801119, 18, 0, 3801120, 18, 0, 3801121, 18, 0, 3801122, 18, 0, 3801123, 20, 0, 3801124, 6, 0, 3801125, 6, 0, 3801126, 6, 0, 3801127, 6, 0, 3801128, 6, 0, 3801129, 6, 0, 3801130, 6, 0, 3801131, 6, 0, 3801132, 6, 0, 3801133, 6, 0, 3801134, 6, 0, 3801135, 6, 0, 3801136, 6, 0, 3801137, 6, 0, 3801138, 6, 0, 3801139, 6, 0, 3801140, 6, 0, 3801141, 6, 0, 3801142, 6, 0, 3801143, 6, 0, 3801144, 6, 0, 3801145, 6, 0, 3801146, 6, 0, 3801147, 6, 0, 3801148, 6, 0, 3801149, 6, 0, 3801150, 6, 0, 3801151, 11, 0, 3801152, 6, 0, 3801153, 6, 0, 3801154, 6, 0, 3801155, 6, 0, 3801156, 17, 0, 3801157, 18, 0, 3801158, 19, 0, 3801159, 18, 0, 3801160, 18, 0, 3801161, 18, 0, 3801162, 18, 0, 3801163, 18, 0, 3801164, 18, 0, 3801165, 18, 0, 3801166, 18, 0, 3801167, 20, 0, 3801168, 6, 0, 3801169, 6, 0, 3801170, 6, 0, 3801171, 6, 0, 3801172, 6, 0, 3801173, 6, 0, 3801174, 6, 0, 3801175, 6, 0, 3801176, 16, 0, 3801177, 6, 0, 3801178, 6, 0, 3801179, 6, 0, 3801180, 6, 0, 3801181, 6, 0, 3801182, 6, 0, 3801183, 6, 0, 3801184, 6, 0, 3932157, 6, 0, 3932158, 6, 0, 3932159, 6, 0, 3866624, 6, 0, 3866625, 6, 0, 3866626, 6, 0, 3866627, 6, 0, 3866628, 11, 0, 3866629, 6, 0, 3866630, 6, 0, 3866631, 6, 0, 3866632, 6, 0, 3866633, 6, 0, 3866634, 6, 0, 3866635, 6, 0, 3866636, 6, 0, 3866637, 6, 0, 3866638, 6, 0, 3866639, 6, 0, 3866640, 6, 0, 3866641, 6, 0, 3866642, 16, 0, 3866643, 6, 0, 3866644, 6, 0, 3866645, 6, 0, 3866646, 6, 0, 3866647, 6, 0, 3866648, 6, 0, 3866649, 6, 0, 3866650, 6, 0, 3866651, 6, 0, 3866652, 6, 0, 3866653, 6, 0, 3866654, 6, 0, 3866655, 6, 0, 3866656, 6, 0, 3866657, 6, 0, 3866658, 6, 0, 3866659, 6, 0, 3866660, 6, 0, 3866661, 6, 0, 3866662, 6, 0, 3866663, 6, 0, 3866664, 6, 0, 3866665, 6, 0, 3866666, 6, 0, 3866667, 6, 0, 3866668, 6, 0, 3866669, 6, 0, 3866670, 6, 0, 3866671, 6, 0, 3866672, 6, 0, 3866673, 6, 0, 3866674, 6, 0, 3866675, 6, 0, 3866676, 6, 0, 3866677, 6, 0, 3866678, 6, 0, 3866679, 6, 0, 3866680, 6, 0, 3866681, 6, 0, 3866682, 6, 0, 3866683, 6, 0, 3866684, 6, 0, 3866685, 6, 0, 3866686, 6, 0, 3866687, 6, 0, 3866688, 6, 0, 3866689, 6, 0, 3866690, 6, 0, 3866691, 6, 0, 3866692, 6, 0, 3866693, 6, 0, 3866694, 6, 0, 3866695, 6, 0, 3866696, 6, 0, 3866697, 6, 0, 3866698, 6, 0, 3866699, 6, 0, 3866700, 6, 0, 3866701, 6, 0, 3866702, 6, 0, 3866703, 6, 0, 3866704, 6, 0, 3866705, 6, 0, 3866706, 6, 0, 3866707, 6, 0, 3866708, 6, 0, 3866709, 16, 0, 3866710, 6, 0, 3866711, 6, 0, 3866712, 6, 0, 3866713, 6, 0, 3866714, 6, 0, 3866715, 6, 0, 3866716, 6, 0, 3866717, 6, 0, 3866718, 6, 0, 3866719, 16, 0, 3866720, 6, 0, 3997693, 6, 0, 3997694, 16, 0, 3997695, 6, 0, 3932160, 6, 0, 3932161, 6, 0, 3932162, 6, 0, 3932163, 6, 0, 3932164, 6, 0, 3932165, 6, 0, 3932166, 6, 0, 3932167, 6, 0, 3932168, 6, 0, 3932169, 6, 0, 3932170, 6, 0, 3932171, 6, 0, 3932172, 11, 0, 3932173, 6, 0, 3932174, 6, 0, 3932175, 6, 0, 3932176, 6, 0, 3932177, 6, 0, 3932178, 6, 0, 3932179, 6, 0, 3932180, 6, 0, 3932181, 6, 0, 3932182, 6, 0, 3932183, 6, 0, 3932184, 6, 0, 3932185, 6, 0, 3932186, 6, 0, 3932187, 6, 0, 3932188, 6, 0, 3932189, 6, 0, 3932190, 6, 0, 3932191, 6, 0, 3932192, 6, 0, 3932193, 6, 0, 3932194, 11, 0, 3932195, 6, 0, 3932196, 6, 0, 3932197, 6, 0, 3932198, 6, 0, 3932199, 6, 0, 3932200, 6, 0, 3932201, 6, 0, 3932202, 6, 0, 3932203, 16, 0, 3932204, 6, 0, 3932205, 6, 0, 3932206, 6, 0, 3932207, 6, 0, 3932208, 6, 0, 3932209, 11, 0, 3932210, 6, 0, 3932211, 6, 0, 3932212, 6, 0, 3932213, 11, 0, 3932214, 6, 0, 3932215, 6, 0, 3932216, 6, 0, 3932217, 6, 0, 3932218, 6, 0, 3932219, 6, 0, 3932220, 16, 0, 3932221, 6, 0, 3932222, 6, 0, 3932223, 6, 0, 3932224, 6, 0, 3932225, 6, 0, 3932226, 6, 0, 3932227, 6, 0, 3932228, 6, 0, 3932229, 6, 0, 3932230, 6, 0, 3932231, 6, 0, 3932232, 6, 0, 3932233, 16, 0, 3932234, 6, 0, 3932235, 6, 0, 3932236, 6, 0, 3932237, 6, 0, 3932238, 6, 0, 3932239, 6, 0, 3932240, 6, 0, 3932241, 6, 0, 3932242, 6, 0, 3932243, 6, 0, 3932244, 6, 0, 3932245, 6, 0, 3932246, 6, 0, 3932247, 6, 0, 3932248, 6, 0, 3932249, 6, 0, 3932250, 6, 0, 3932251, 6, 0, 3932252, 11, 0, 3932253, 6, 0, 3932254, 6, 0, 3932255, 6, 0, 3932256, 6, 0, 4063229, 6, 0, 4063230, 6, 0, 4063231, 6, 0, 3997696, 6, 0, 3997697, 6, 0, 3997698, 6, 0, 3997699, 6, 0, 3997700, 6, 0, 3997701, 6, 0, 3997702, 6, 0, 3997703, 6, 0, 3997704, 6, 0, 3997705, 6, 0, 3997706, 6, 0, 3997707, 6, 0, 3997708, 6, 0, 3997709, 6, 0, 3997710, 6, 0, 3997711, 6, 0, 3997712, 6, 0, 3997713, 6, 0, 3997714, 6, 0, 3997715, 6, 0, 3997716, 6, 0, 3997717, 6, 0, 3997718, 6, 0, 3997719, 6, 0, 3997720, 6, 0, 3997721, 6, 0, 3997722, 6, 0, 3997723, 6, 0, 3997724, 16, 0, 3997725, 6, 0, 3997726, 6, 0, 3997727, 6, 0, 3997728, 6, 0, 3997729, 6, 0, 3997730, 6, 0, 3997731, 6, 0, 3997732, 6, 0, 3997733, 6, 0, 3997734, 6, 0, 3997735, 6, 0, 3997736, 6, 0, 3997737, 6, 0, 3997738, 6, 0, 3997739, 6, 0, 3997740, 6, 0, 3997741, 6, 0, 3997742, 6, 0, 3997743, 6, 0, 3997744, 6, 0, 3997745, 6, 0, 3997746, 6, 0, 3997747, 6, 0, 3997748, 6, 0, 3997749, 6, 0, 3997750, 6, 0, 3997751, 6, 0, 3997752, 6, 0, 3997753, 6, 0, 3997754, 6, 0, 3997755, 6, 0, 3997756, 6, 0, 3997757, 6, 0, 3997758, 6, 0, 3997759, 6, 0, 3997760, 6, 0, 3997761, 6, 0, 3997762, 6, 0, 3997763, 11, 0, 3997764, 6, 0, 3997765, 6, 0, 3997766, 6, 0, 3997767, 6, 0, 3997768, 6, 0, 3997769, 6, 0, 3997770, 6, 0, 3997771, 6, 0, 3997772, 6, 0, 3997773, 6, 0, 3997774, 6, 0, 3997775, 6, 0, 3997776, 11, 0, 3997777, 6, 0, 3997778, 6, 0, 3997779, 6, 0, 3997780, 6, 0, 3997781, 6, 0, 3997782, 6, 0, 3997783, 6, 0, 3997784, 6, 0, 3997785, 6, 0, 3997786, 6, 0, 3997787, 6, 0, 3997788, 6, 0, 3997789, 6, 0, 3997790, 6, 0, 3997791, 6, 0, 3997792, 6, 0 )

[node name="Player" parent="TileMap" instance=ExtResource( 2 )]
position = Vector2( 591.405, 336.514 )
